<svg id="Layer_1" data-name="Layer 1" xmlns="http://www.w3.org/2000/svg" xmlns:xlink="http://www.w3.org/1999/xlink" viewBox="0 0 656.47 493.06">
  <defs>
    <style>
      .cls-1, .cls-4 {
        fill: none;
      }

      .cls-2 {
        clip-path: url(#clip-path);
      }

      .cls-3 {
        fill: #494949;
      }

      .cls-4 {
        stroke: #494949;
        stroke-miterlimit: 10;
        stroke-width: 8px;
      }
    </style>
    <clipPath id="clip-path" transform="translate(77.66 -3.68)">
      <circle class="cls-1" cx="250.54" cy="251.01" r="241.07"/>
    </clipPath>
  </defs>
  <title>logo_laMaria</title>
  <g class="cls-2">
    <path id="path3081" class="cls-3" d="M259.22,496.69c-.38-.59-22.29-4.89-29.35-4.89s-46.16,2.64-46.55,2S196.14,485.23,200,482c7.7-8.19,8.51-7.9,16.14-16.87,6.51-14.94,1.82-5.21,6.51-14.94-.14-2.55,7.32-16.49,4.61-29.26,1.7-14.94,1.41-12.17-1.9-22.49-2.36-7.34-2.56-7.52-8.47-7.95-3.44-.25-5.74-1.07-5.33-1.89a3.25,3.25,0,0,1,2.17-1.63c.79-.11,2.09-.35,2.93-.54a8,8,0,0,1,2.54-.17c2.32.38,1-7-1.58-8.38-3.63-1.95-15-5.87-17.11-5.87-2.3,0-11.34,9-10.81,10.83.23.79-.43.6-1.49-.44-1.57-1.55-1.31-2.34,1.56-4.5,1.89-1.44,3-3.3,2.51-4.15s.2-1.8,1.59-2.15c5.36-1.27-2.33-2.85-9-1.85-4.67.71-6.53,1.67-6.6,3.42-.07,1.5-.4,1.75-.85.63-1.61-4-23.16,0-32.81,6.07a32.9,32.9,0,0,1-6.71,3C134,384,123,392.42,115.1,400.32c-4.1,4.08-5.32,4.53-10.49,3.84-6.3-.85-16.54,2.25-23.48,7.11-4.31,3-7.35,2.23-13.69-3.51-1.73-1.58-3.72-2.5-4.44-2.06s-2.1-1.45-3.09-4.19c-2.2-6.09-3.91-6.21-10.35-.7-5.08,4.35-9.32,5.11-15.84,2.85-2.65-.92-2-1,2.53-.45,5.45.71,6.14.47,6.14-2.1,0-1.6-.81-3.23-1.8-3.63s-.35-.78,1.44-.84c2.14-.08,3.25.72,3.25,2.33,0,1.95.89,1.59,4.2-1.59,5-4.8,8.8-4.46,11.46,1.06,1.06,2.23,3,4.45,4.35,4.89a29.27,29.27,0,0,1,6.27,4.06l3.85,3.18,8.66-4.29a41.16,41.16,0,0,1,16.63-4.64c6.25-.28,8.8-1.16,12.06-4.13,11.31-10.39,17.17-14.79,23.71-17.81,3.91-1.83,7.16-3.7,7.16-4.16,0-1.28-14.75.71-18.39,2.48-2.3,1.11-3.74,1.1-5.13,0s-3.1-.9-6.61,1.24c-4.71,2.86-11.8,2.63-11.8-.38,0-.8-1-1.08-2.17-.62s-2.17,0-2.17-1.29c0-1.95-2.52-2.8-6.85-2.23-2.34.31-2.34-2.35,0-3.19,1-.35,1.31-1.18.71-1.83s-1.88-.42-2.83.52c-1.85,1.85-15.65,2.42-15.41.63.44-2.83-.36-3.44-2.34-1.8-2.21,1.83-2.87.72-2.31-3.91.41-3.31-2.75-3.44-9.42-.4-4.52,2.06-7.06,2.56-7.7,1.52s-2.5-1.11-5.94-.12c-2.74.78-5.22,1.42-5.53,1.42s-.14-2,.36-4.54c1-5.21-1.07-8.65-4.63-7.55-2.14.67-2.17.53-.24-1.17a21.6,21.6,0,0,0,4.07-6.18c1.29-2.93,2.24-3.69,3-2.48a3,3,0,0,0,3.51.85c2.16-.83,2.07-1.29-.81-4.29-2.21-2.3-3.77-2.93-4.89-1.95s-1.87.9-2.19,0-3.92-1.72-8.1-2.07c-5.82-.51-7.59-.19-7.59,1.35,0,1.11-2.28,4.53-5.06,7.61s-5.06,6.23-5.06,7c0,2.94-5.28,5.55-10.84,5.36-9.72-.32-11-.55-10.24-1.86.43-.7,2.72-1,5.08-.77s4.74-.19,5.28-1c.66-1.08,1.33-1,2.12.3,1,1.53,1.57,1.52,3.43,0,1.25-1,2.28-2.4,2.28-3s2.28-3.41,5.06-6.18c7.82-7.83,6.18-11.3-2.39-5.2-2.36,1.68-4.68,2.66-5.14,2.19S5.17,344,4.3,345.2c-1.25,1.72-1.61.87-1.72-4a39.92,39.92,0,0,0-1.25-9.42c-.77-2.21-.56-3.26.64-3.26,1,0,1.41,1,1,2.12a2.54,2.54,0,0,0,.57,3c.76.47,1.38.14,1.38-.74,0-2.16,6.7-8.74,7.82-7.66.47.48-.43,1.78-2,2.94-2.85,1.95-4,6.19-1.71,6.19,1.95,0,9.32-7.91,10.75-11.64.54-1.35.87-1,1,1.15.06,1.79-.54,3.26-1.33,3.26A1.54,1.54,0,0,0,18,328.76c0,2.52-7.59,8.47-10.84,8.53-2.86,0-2.86.08-.09,2.17,1.8,1.35,3.14,1.6,3.72.65,1.66-2.69,10.18-4.17,25.42-4.41,8.3-.14,15.08-.85,15.08-1.61s.74-.89,1.66-.32,2.4,0,3.3-1.22a8.79,8.79,0,0,1,5.21-2.75c2.82-.4,3.54-1.33,3.48-4.48,0-2.19.42-4,1-4s.72-1,.24-2.28c-.55-1.45-.14-2.17,1.14-1.95,5.25.73,5.86-.4,1.28-2.43a47.87,47.87,0,0,0-6.73-2.53A11.29,11.29,0,0,1,58,310a8.07,8.07,0,0,0-5.87-1.24c-2,.38-3.24.13-2.82-.55s-.58-1.24-2.21-1.24-2.93.73-2.93,1.62-1.28,1.28-2.94.84c-2.93-.77-10.06,4.34-10.06,7.28,0,.79-1.22,3-2.72,4.89A21.28,21.28,0,0,0,25,327.88c-.52,2.06-.79,1.63-.9-1.46s.79-4.95,2.73-6.16a6.27,6.27,0,0,0,2.88-4.5,6.77,6.77,0,0,1,2.17-4.51c5.44-4.51-1-6.07-7.64-1.86l-3.91,2.47,2.76-3.19,2.76-3.2H21.15c-2.35,0-5-.75-5.87-1.65-1.19-1.18-3.27-1.23-7.51-.15-3.22.82-5.49.9-5,.18,1.6-2.6-3.86-6-9.57-5.86-4.08.05-5.72-.52-5.72-2,0-2.64-10.32-2.18-11.21.5-.33,1,.15,1.79,1.06,1.79s1.25.65.75,1.45c-1.54,2.5-6.25,1.56-8.55-1.71-1.53-2.21-1.76-3.7-.73-4.9,1.89-2.27.92-2.79-9.15-4.89-8.66-1.78-9.22-2.25-6.84-5.86,1.27-1.9,1.64-1.85,2.93.36,1.66,2.81,9.35,3.42,12.92,1,1.82-1.23,1.47-2-2.17-5-4.76-3.91-9.23-4.58-12.17-1.79-1.58,1.48-1.72,1.2-.92-1.46.71-2.36.4-3.26-1.16-3.26a16.2,16.2,0,0,1-4.67-1c-1.73-.67-2.2-.43-1.48.72s.11,1.69-1.37,1.69-2.1-.78-1.6-2.09c.82-2.13-4.23-4.77-5.87-3.1-.47.47-.08.85.87.85S-59.58,271-58.8,273c.9,2.35,2.34,3.56,3.91,3.29,3.79-.62,6,1.32,5.12,4.57s-6.29,3.91-12.44,1.54c-2.46-.92-4.35-.77-6.24.53-3.91,2.68-9.21,4.15-9.21,2.54,0-1.39,1.77-2.17,12.3-5.34l5.77-1.74-4.35-1c-2.38-.56-5.87-1.33-7.71-1.71-2.78-.57-3.06-1.07-1.63-2.8a6.53,6.53,0,0,1,4.45-2.14c3.6,0,3.48-2.46-.17-3.61a4.18,4.18,0,0,1-2.94-3.56,3.89,3.89,0,0,0-2.16-3.47c-3.76-1.45-2.5-4.22,1.47-3.22,3,.75,3.91.25,5.08-2.89s1.86-3.5,3.61-2,2.14,1.35,2.14-.56a2.2,2.2,0,0,0-2-2.35c-2,0-4.62-6.84-3.23-8.25.37-.37,1.78,1,3.13,3.07,2.94,4.47,7.42,5.34,5.09,1-1.25-2.34-1-2.64,1.39-2,1.59.42,2.86,0,2.86-.86a1.86,1.86,0,0,1,2-1.61c1.37,0,1.77,1,1.23,3.08s-.25,2.93,1.21,2.42c1.12-.37,2.36-2.84,2.75-5.48.48-3.14,1.61-4.95,3.26-5.19,1.39-.2,2.53.48,2.53,1.52a3.33,3.33,0,0,0,2.16,2.72c1.19.46,2.17.2,2.17-.57,0-2.08,4.33-1.69,4.45.41.09,1.37.31,1.35.87-.08s1.26-1.22,2.74.73c1.85,2.44,2,2.45,2,.08,0-1.39.77-2.54,1.65-2.54s1.2,1,.71,2.29c-.55,1.47-.22,2.06,1,1.64,1-.36,2.94.31,4.28,1.49,2.18,1.91,2.72,1.88,4.79-.17s2-2.47-1.39-4c-2-.93-3.71-2.19-3.71-2.82,0-2.17,2.86-2.87,5.66-1.37,2.51,1.35,2.77,1.09,2.37-2.45-.54-4.7,1.47-7.74,4.37-6.64,1.14.44,2.06.08,2.06-.81s-1-1.59-2.16-1.59-2.18-.64-2.18-1.4.91-1.06,2-.63a2.51,2.51,0,0,0,2.93-.77c.53-.85,4-1.54,7.67-1.54,4.74,0,6.26-.45,5.17-1.54S3.35,216-2.32,216.62c-6.85.78-8.87,1.55-8.87,3.37,0,1.29-1.3,3.17-2.94,4.15-2.4,1.51-2.93,1.45-2.93-.37a2.27,2.27,0,0,1,2.34-2.18c1.62,0,2.1-.88,1.57-2.93-.62-2.41,0-2.94,3.55-2.94a18.68,18.68,0,0,0,7.43-1.67c3.05-1.64,3.05-1.7.26-2.8-4.54-1.77-11.95-1.48-12.71.49-.44,1.09-.79.79-.86-.72-.12-2.84-3.24-3.28-7.43-1-2.2,1.18-2.8,1-2.8-.72a2.32,2.32,0,0,0-2.41-2.22c-1.32,0-2-.44-1.44-1,1.13-1.13-3.16-6.26-5.22-6.26-.77,0-.62,1,.35,2.1,1.82,2.19.93,5.13-1.56,5.13-.81,0-1-.66-.56-1.45s-.32-1.45-1.81-1.45a10.56,10.56,0,0,1-5.51-2.29c-2.58-2.1-2.59-2.22-.14-1.43,4.13,1.31,5.78-.57,3.1-3.53-2.22-2.46-2.18-2.84.72-5.74,2.37-2.35,2.73-3.57,1.51-5a22.11,22.11,0,0,1-2.94-6.42c-1-3.51-.84-4.48.78-4.48a2.09,2.09,0,0,1,2.07,2.07c0,1.13,1.7,4.07,3.78,6.54,2.76,3.29,4.26,4.09,5.58,3,1-.82,3.84-1.08,6.34-.59,6,1.22,5.78-.34-.51-2.93-5.16-2.15-6.85-5.15-2.94-5.15a2.17,2.17,0,0,1,2.17,2.17,2.18,2.18,0,0,0,2.17,2.17c4.46,0,.73-6.55-4.47-7.83a15.23,15.23,0,0,1-6-3.15c-1.76-1.77-2.43-1.83-3.35-.34-1.57,2.54-3.36.52-2.2-2.48.71-1.87,1.36-2,2.93-.72,2.75,2.28,9.51,3.4,9.51,1.57a1.78,1.78,0,0,0-2-1.48c-1.08,0-3.35-1.21-5.07-2.7-3.23-2.8-4.3-5.43-1.5-3.7a2.12,2.12,0,0,0,2.81-1c.89-1.44,1.59-1,2.69,1.95q2.94,7.68,2.69-.41a11.61,11.61,0,0,1,2.27-7c1.31-1.46,2.39-3.48,2.39-4.51,0-1.52.42-1.52,2.24,0a3.89,3.89,0,0,1,1.44,3.91c-1.39,3.62.88,5,3.06,2,2.46-3.51,4.83-3.91,4.83-.83A2.17,2.17,0,0,0-7.74,158c1.19,0,2.16-.69,2.16-1.54s-.64-1.12-1.44-.63-1.44.2-1.44-.64A1.49,1.49,0,0,1-7,153.61h0c.87,0,.76-1.13-.3-2.83-2.2-3.51-.56-5.47,2.47-2.93,1.86,1.54,2.56,1.43,4.06-.63,1-1.36,2.45-2.3,3.21-2.07s2.89-.42,4.71-1.43a11.89,11.89,0,0,1,6.32-1.39c2.46.36,3.38-.73,4.89-5.7,1.64-5.48,1.58-6.14-.54-6.15-3.23,0-12.35-5.69-11.11-6.92a5.74,5.74,0,0,1,3.41-1c1.59,0,2.59-1.44,2.93-4.16s1.5-4.4,3.28-4.89c2.16-.57,2.45-1.19,1.21-2.66-2.23-2.69-.43-5,3.92-5,2.4,0,3.91,1,4.39,2.79.69,2.65,6.23,3.75,6.23,1.24,0-.63,1-1.15,2.17-1.15,1.4,0,2.17,1.42,2.19,4,0,3,.35,3.46,1.35,1.88.73-1.15,1-2.54.71-3.09s1.41-1.82,3.91-2.83c3.68-1.53,5-1.52,7.57.05,2.79,1.74,2.94,1.7,1.15-.42a12.05,12.05,0,0,0-4.8-3.25c-1.71-.54-2.55-1.73-2.08-2.94s-.5-2.84-2.06-3.82c-3.63-2.27-3.63-6.07,0-11.16C44.44,84,46,83.29,49.42,83.69c3.66.43,4.36,0,4.36-2.6,0-3.09,0-3.09,3.74.39,3.3,3.1,3.91,3.24,5.41,1.24,2.33-3.1,6.45-4.46,7.15-2.36.43,1.28,1.22,1.21,3-.28C74.45,79,76,78.48,76.45,79s1.73-.21,2.74-1.59c1.5-2.06,2.56-2.24,5.93-1a11.29,11.29,0,0,0,8.15,0c3.07-1.1,4.34-1,5.25.47s1.48,1.42,2.61-.59c.77-1.39,3.17-2.72,5.35-2.93a13.29,13.29,0,0,0,6.42-2.69c2.94-2.62,8.1-2,11.92,1.49,2.78,2.5,3.92.85,1.22-1.81-2.35-2.35,3.66-9.13,7.26-8.19,1.62.42,2.94,0,2.94-.86s-.49-1.61-1.09-1.62-3.69-1.64-6.84-3.63c-5-3.12-5.23-3.5-1.81-2.73,5,1.13,5,.42-.37-5.43-6.33-6.94-5.74-8.48,2.94-7.45,6.68.79,7.23.62,7.23-2.24,0-1.82.91-3.09,2.23-3.09,3.56,0,8.24,5.29,8.24,9.31,0,2.31.81,3.71,2.15,3.71s1.82.84,1.31,2.16-.25,2.17.47,2.17c2.43,0,3.14-5.75,1.33-10.76-1.34-3.72-1.38-5.48-.15-6.94s.84-2.57-2-4.64c-2-1.47-3.54-3.55-3.54-4.64,0-2.6,1.37-2.47,4.58.43,1.73,1.57,2.65,1.78,2.65.64,0-1,.59-1.39,1.32-1a1.51,1.51,0,0,0,2.07-1c.56-1.33,1.31-1.13,2.82.72A7.67,7.67,0,0,0,165,27.87c2.58,0,2.94-.6,2.25-3.48-.67-2.69-.18-3.7,2.14-4.43,3.21-1,4.17-3.66,1.33-3.66-1,0-1.34-.34-.92-.76s2.44-.13,4.48.65c2.67,1,3.92.92,4.54-.32s1-1.31,1.66.07c1.43,3.06,3.27,2,2.53-1.45l-.7-3.24,2.89,3.26a22.81,22.81,0,0,1,3.53,5.07c1.51,4.25,2.12-.27.91-6.77-1.57-8.39-.55-10.51,1.91-4,2,5.19,4,6.06,4,1.71s2.08-3.46,4.76,2.17c1.37,2.87,3.49,5.06,4.89,5.06,2.2,0,2.16-.23-.29-2s-2.46-2.34-.79-4.36a4.7,4.7,0,0,1,5-1.51c2.24.62,2.51.48,1-.54a3.26,3.26,0,0,1-1-4c.65-1.72,1.36-2.07,2-1,.55.89,2.63,1.85,4.62,2.13,2.93.4,3.54,1.22,3.2,4.17s.21,3.67,2.52,3.67c1.63,0,2.94-.83,2.94-1.86s1.35-3.21,3-4.89c2.39-2.39,3.4-2.64,5.07-1.25s1.69,2.23.5,3.64-1,2.69.48,4.89c2.39,3.42,4,2.49,4-2.33,0-2,.86-3.38,2.17-3.38a2.51,2.51,0,0,1,2.17,2.72,6.44,6.44,0,0,0,2,4.38c1.61,1.34,2.31.81,3.54-2.72.84-2.4,2-4.37,2.69-4.36,3.49.06,7.57,2,8.31,3.91s.49,2-1.37.38c-3.54-2.94-4.47-.29-1,2.93s5.42,3.82,3.91,1.37,2-5.51,5.15-4.68c1.57.41,2.84.07,2.84-.75s1.15-1.32,2.53-1.1c1.89.27,2.4,1.44,2,4.56l-.51,4.2L275,16c3-3.83,8.71-5.49,8.71-2.52,0,.79,1.27,1.43,2.81,1.43s3.21.66,3.71,1.46q.89,1.47,3.6,0c4.39-2.35,10.76-1.67,14.2,1.5,1.73,1.62,3.16,3.58,3.16,4.35s1.15.67,2.7-.28a4,4,0,0,0,1.95-4.36c-1.06-4.1,2.43-3.16,4,1.1,1.18,3.09,2.08,3.61,5,2.86,2.75-.68,3.59-.33,3.59,1.53,0,2.25.18,2.25,2.64,0,3.15-2.84,7.68-3.45,4.89-.65a6.29,6.29,0,0,0-1.74,3.81c0,1.24,1.2.55,3-1.74,1.64-2.09,3.91-3.81,5-3.81,2.87,0,4,5.14,2,8.52-1,1.61-1.28,3.44-.6,4.07s1.51.33,1.88-.66c.87-2.45,3.29-2.3,3.29.2,0,3.48,4,3.76,6.24.43,2.09-3.08,2.13-3,1.83,1.68-.33,5.23,2.82,8,5.07,4.41,1-1.52,1.28-1.22,1.3,1.23,0,1.79.64,3.25,1.42,3.25s1,1,.56,2.18-.1,2.17.78,2.17,1.59-1.31,1.59-2.94.61-2.93,1.35-2.93c2.27,0,3.35,5.79,1.49,8-1.34,1.62-1.34,2.1,0,2.1a7.13,7.13,0,0,1,4,2.25c2,2,1.95,2.52-.82,5.12-4.2,3.91-3.92,5.05.57,2.14a10.89,10.89,0,0,1,8.63-1.46c4.36.81,4.71,1.18,2.85,3-2.71,2.71-2.69,4.68,0,5.72,1.19.46,2.17,1.49,2.17,2.28s-1,1.08-2.17.62-2.17-.21-2.17.57.92,1.39,2.07,1.39c1.95,0,7.28,5.66,8.34,8.81.27.8,1.66,1,3.11.45,1.76-.68,2.37-2,1.85-3.92a8.55,8.55,0,0,1,.56-5.37,29.75,29.75,0,0,0,2.2-6.89c1-5.41-1.18-5.95-5.87-1.5-5,4.67-8.8,0-4.89-5.93,1.26-1.89,1.64-1.84,2.93.38s1.73,2.32,3.69.36c3-2.93,5-2.75,5.87.7.86,3.28,2.65,3.78,3.91,1.09.47-1,.54.3.16,2.93-1,6.2,1.32,6.1,9.95-.5,4.21-3.21,6.53-6,6.05-7.23s-.2-2,.52-2c1.84,0,3.18,4.89,2.1,7.75a3.69,3.69,0,0,1-2.94,2.37c-1.14,0-3.47,1.31-5.18,2.93s-4.27,2.93-5.72,2.93-2.62.65-2.62,1.45-1,1.44-2.16,1.44a2.17,2.17,0,0,1-2.17-2.16c0-1.2-.73-2.17-1.61-2.17s-1.2,1-.72,2.27a7.17,7.17,0,0,1-.62,5.06c-1.81,3.39-1.66,3.39,7.74.39,7.6-2.41,18.27-11,18.32-14.77,0-1.61.43-1.64,2.22-.15a4.29,4.29,0,0,1,1.24,4.89c-.85,2.66-.68,2.8,1.36,1.1,1.28-1.06,3.17-1.63,4.18-1.27S436,69.67,432,71.58c-5.75,2.76-7.32,4.28-7.68,7.43-.59,5.06-3.16,5.21-3.16.18,0-3.15-.35-3.5-2.09-2-1.16,1-5.23,2.85-9,4.22-6.21,2.23-6.9,2.93-6.48,6.4.34,2.77-.18,3.91-1.81,3.91-1.25,0-2.26.65-2.26,1.45a1.42,1.42,0,0,0,1.42,1.44h0c.81,0,1.45,1.29,1.45,2.87,0,2.52.42,2.66,3.62,1.21,2-.91,3.61-2.5,3.61-3.54s.91-1.54,2-1.11c2.77,1.05,4.63-2.33,2.14-3.92-1.15-.72-1.31-1.27-.36-1.28s2.46,1,3.46,2.18c1.64,2,2.18,2,5.19,0a15.2,15.2,0,0,1,4.32-2.2c1.78,0-5.87,5.28-10.61,7.34-2.67,1.16-4.53,2.93-4.33,4.18s-.41,2.17-1.34,2.19a4.59,4.59,0,0,0-2.78,1.11c-.6.6-.16,1,1,1,2.59-.13,8.32-2.54,6.38-2.69s4-3.14,14.46-7.26c4.77-1.88,9.29-3.91,10-4.62,1.85-1.66,3.69-1.55,3.69.2,0,1.38-5.51,4.18-15.91,8.07-2.78,1-4.89,2.63-4.66,3.54s-.27,1.22-1.08.71-1.49.38-1.49,2-.62,3.29-1.39,3.76-.08,2.18,1.57,3.81c2.84,2.86,3,2.87,5,.31s2.07-2.49,2.93.61c1,3.35,5.69,4.53,6.66,1.64.29-.89,1.76-1.38,3.27-1.08,2.6.5,2.61.64.21,3-1.39,1.39-2.09,3.21-1.57,4s.07,2.57-1,3.91c-1.52,1.84-1.55,2.48-.13,2.93a3,3,0,0,1,1.81,2.62c0,1.18.89,1.66,2.17,1.16a3.81,3.81,0,0,0,2.17-3.36c0-2,.87-2.38,3.63-1.84,2,.38,4,1.26,4.43,2a2.83,2.83,0,0,0,2.12,1.27c1.59,0,.12-13.12-1.69-15.11-2.13-2.32-1.4-4.14.91-2.24a6.52,6.52,0,0,1,2.16,4.41c0,4.59,1.59,7,4,6.1,1.73-.67,2.07-.27,1.34,1.61-.52,1.37-.36,2.12.37,1.67s1.54.34,1.81,1.74c.37,1.95,1.32,1.2,3.91-2.94,2.72-4.4,3-5.87,1.6-7.59a5.94,5.94,0,0,0-3.8-2.12,3.53,3.53,0,0,1-2.94-2.26,2.27,2.27,0,0,0-2.76-1.53c-1.13.44-2.08-.53-2.37-2.44-.27-1.74-1.28-3-2.26-2.81s-1.77-.61-1.77-1.81a2.17,2.17,0,0,1,2.16-2.17c1.19,0,2.17.7,2.17,1.56,0,2,2.94,4.84,6.14,6.07,1.4.53,2.54,1.56,2.54,2.3s.92,1.68,2,2.11c1.48.57,2-.25,1.6-3-.22-2.1-1.14-4.07-2-4.36-2.38-.79-2-3.19.56-3.19,1.19,0,2.17.7,2.17,1.56s1.6,1.21,4.33.61c3.58-.79,4.34-.5,4.36,1.69s.25,2.29,1.37.51c.93-1.47.59-3-1.1-5-2.21-2.52-2.22-2.72-.09-1.95,1.3.47,3.78-.13,5.5-1.34,3.67-2.58,10.21-1.48,10.21,1.72s2.34,2.57,5.67-1.66c1.65-2.11,3-3.15,3-2.34s1.14,1.39,2.53,1.28c2-.16,2.53.93,2.53,4.89,0,5.7,2.64,8.26,3.35,3.26.3-2.08,1.46-3.26,3.21-3.26s2.48.71,2,2.17c-.46,1.19-.2,2.17.59,2.17s1.77-1.31,2.19-2.93c1.23-4.69,4.85-3.34,8,2.93,1.58,3.22,3.16,5.06,3.48,4.08s1.35-1.31,2.53-.58c1.57,1,1.45,1.57-.59,3.05-1.39,1-2.16,2.46-1.71,3.19.88,1.42-5.05,4.65-8.56,4.65-1.15,0-2.09.69-2.09,1.54s-1.17,1.17-2.61.72a6.71,6.71,0,0,0-5.42,1.42c-2.67,2.12-2.57,2.19,1.76,1.36a71.48,71.48,0,0,1,10.43-1c4.52-.07,6.37-.87,8.11-3.53,2.74-4.2,5.63-4.56,4.36-.55-1,3.23,2.86,4.27,4,1.08.5-1.36,1.1-1.39,2.42-.15,2.35,2.2-4.52,4.36-18,5.66-12.84,1.24-19.56,3.91-19.56,7.71,0,1.58.61,3.25,1.38,3.72s1.12,2.78.82,5.15c-.58,4.58.47,5.39,3.29,2.56,1.35-1.35,1.74-1.18,1.74.72,0,1.67-1.18,2.46-3.61,2.46-2,0-3.62.65-3.62,1.45a1.52,1.52,0,0,0,1.6,1.44c.88,0,1.24,1,.8,2.08a2,2,0,0,0,.83,2.62c2.67.88,0,5.43-3.18,5.43-1.62,0-2.94.55-2.94,1.24s1.66.93,3.67.55c2.43-.47,4.33-2.28,5.6-5.35,1.78-4.24,2.43-4.6,7.54-4.17,3.09.26,6.85.52,8.32.56s3.85,1.48,5.23,3.19l2.51,3.11,1-3.18c.56-1.75,2-3.18,3.17-3.18s1.75.64,1.26,1.45c-1.57,2.54,1.16,1.54,4.61-1.7,2.64-2.48,3.34-2.67,3.34-.9a6.16,6.16,0,0,1-2.17,4,6.15,6.15,0,0,0-2.16,3.8,2.07,2.07,0,0,1-1.81,2.11c-5.17.34-10.64,1.66-11.85,2.86-.75.75-2.88,1.36-4.71,1.36s-3.32.58-3.32,1.31,1.31,1,2.93.55c2.19-.57,2.7-.21,2.06,1.47-1.27,3.29,5.15,1.46,8.53-2.44,2.13-2.43,2.51-2.54,1.86-.53-.46,1.43-.08,2.53.87,2.53s-.52,1.63-3.21,3.61-5.76,3.62-6.79,3.62c-1.71,0-2.52,1.83-2.07,4.69.1.6-.86,1.09-2.11,1.09s-2,.81-1.63,1.81a2.15,2.15,0,0,0,2.34,1.44c.91-.22,2.06.66,2.55,1.95.73,2,1.5,1.6,4.37-1.8l3.49-4.1-.9,7.23c-.86,6.95-.8,7.1,1.45,4,1.29-1.79,3.29-3.25,4.44-3.25s2.08-.65,2.08-1.44-1-1.45-2.17-1.45-2.17-.65-2.17-1.45,1-1.44,2.17-1.44,2.17.65,2.17,1.44,1,1.45,2.17,1.45c2.38,0,2.94,2.25.86,3.53-.72.44-1,2-.61,3.47.51,2-.51,3.17-3.71,4.5a19.2,19.2,0,0,0-6.1,3.92c-1.46,1.75-1.11,1.82,2.32.51,2.22-.84,4.37-1.18,4.79-.76s0,.76-1,.76c-1.26,0-1.5,1.34-.83,4.44.83,3.76.5,4.56-2.17,5.26-2.35.61-2.66,1.13-1.23,2a7.69,7.69,0,0,0,5.07.39c2.65-.66,3.05-.3,2.38,2.23-.43,1.67-1.69,3-2.79,3-2.49,0-2.63,2.4-.19,3.38,1.13.46.91.77-.6.85a2,2,0,0,0-2.05,2,1.87,1.87,0,0,0,.1.62c.44,2.62,3.06,2.66,6.15.09,1.22-1,1.35-2.29.4-4.06s-.79-3.09.69-4.31c1.69-1.42,2.25-1.05,3,1.95s1.4,3.46,3.58,2.3c4.06-2.17,4.42-1.83,4,3.85-.32,4.11.15,5.36,2.12,5.66,1.39.21,2.53-.21,2.53-1s1.3-1.31,2.93-1.31c1.83,0,2.94,1,2.94,2.6a7,7,0,0,0,1.74,4.34c1.37,1.37,1.17,2.3-.87,4.27-2.5,2.4-2.58,2.38-1.71-.53s.4-3-5.08-2.71c-3.28.19-6.47,1.13-7.08,2.12s-2.33,1.39-4.17.8-3.08-.34-3.08.57a1.57,1.57,0,0,1-1.59,1.55c-.89,0-1.2-1.06-.69-2.38.75-2,.53-2-1.24-.6s-1.76,2.19-.39,3.67c1,1.05,2.25,1.6,2.86,1.22,3.76-2.28,8-1.68,9.42,1.35,1,2,1.6,2.44,1.66,1.06.11-2.36,5.87-6.7,5.87-4.42a3.16,3.16,0,0,1-1.48,2.28,1.66,1.66,0,0,0-.65,2.24c.93,1.5,9-3.73,12-7.83,1.54-2,2.35-2.26,3.62-.9s1.2,1.91,0,2.34a44.88,44.88,0,0,0-6.5,4.26l-4.89,3.65,4.34-.91,7.59-1.56c1.79-.36,3.25,0,3.25.81,0,1.32-3.25,2-8.32,1.86-1,0-1.8,1.16-1.8,2.67a2.52,2.52,0,0,1-2.17,2.73c-1.19,0-2.17.65-2.17,1.45s-2.74,2.56-6.09,3.92l-6.09,2.44,4.48,1.16c6.2,1.61,7.51,7.68,2.07,9.68L555,277.83l4.35.21a26.58,26.58,0,0,1,6.84,1.23c2.34.91,2.36,1.27.29,4.23a7.74,7.74,0,0,1-5.44,3.21c-2.57,0-2.77-.29-1-1.42,3.36-2.18.8-1.7-3.81.71-2.28,1.19-3.5,2.2-2.7,2.26,2.55.18-18.67,7-22,7.07-6.3.14-25.66,3.54-23.17,4.08,1.4.31,2.22,1.07,1.83,1.7-1.32,2.15,7.16,1.25,9.72-1,1.4-1.23,3-1.77,3.6-1.2s-.55,2.26-2.5,3.74c-3.08,2.33-6.32,2.7-12.31,1.43-3.19-.68-5.17.12-4.2,1.69.71,1.16-.12,1.37-2.81.7-2.11-.53-6.76-1.37-10.34-1.86s-6.5-1.41-6.5-2.05,2.43-.78,5.42-.32c6.24,1,5.75-.51-.79-2.38-3.57-1-4.89-.74-6.92,1.49-1.38,1.52-3.31,2.76-4.28,2.76-2.34,0-13.7,11.73-13.7,14.15a1.46,1.46,0,0,1-1.36,1.55,1.71,1.71,0,0,1-.45,0c-1-.21-5.28,1.4-9.51,3.56a57.85,57.85,0,0,1-13.38,4.83c-3.11.5-5.65,1.47-5.65,2.16a1.41,1.41,0,0,0,1.52,1.26c.84,0,1.17.58.73,1.29-.88,1.42,9.6,3.12,10.76,1.74a6.82,6.82,0,0,1,3.26-1.29c3.69-.61,3.09,2.22-.72,3.44-3,1-2.94,1.18,1.8,2.94,8,2.88,11.14,2.52,12.12-1.4.62-2.46,2.12-3.63,5.26-4.09,5-.74,5.13,1.59.19,4.07-5.23,2.63-4.94,3.1,1.55,2.45,3.4-.35,7.47-.61,9-.59a9.46,9.46,0,0,0,5.06-1.7c4.09-3.23,8.67-5.36,11.47-5.36a4.26,4.26,0,0,0,3.65-1.81c.47-1,.59-.34.25,1.45s0,3.25.72,3.25,1.31-1,1.31-2.17c0-2.42,2.25-2.93,3.58-.78.54.88,2.3.83,4.78-.14,2.15-.84,7-2.35,10.76-3.34,5.76-1.53,6.61-1.51,5.25.13-.9,1.08-3.66,2-6.15,2-3,0-3.91.43-2.59,1.25,1.56,1,1.51,1.38-.27,2.07a2,2,0,0,1-2.75-.84v0c-.67-2-5.4,2.1-5.4,4.66,0,2-.1,2,7.2-.62,3.36-1.18,6.84-1.7,7.73-1.15,2.61,1.61,7.74,1.15,10.23-.91,2-1.64,2.3-1.5,2.3,1.06A4.24,4.24,0,0,1,533.9,341c-1.6.51-2.94,1.52-2.94,2.27,0,2.3,4.64,1.47,6.69-1.19,1.75-2.25,2-2,1.65,2.33-.23,3.71-1.16,5.19-4,6.27-5,2-13.05,2.5-13.05.93,0-1.32-4.37-.83-9.4,1.06-1.71.63-2.4.54-1.68-.24,1.66-1.82-15-4.7-18.2-3.16a6.38,6.38,0,0,1-5.49-.36c-2.16-1.15-4.32-1.13-7.95.06-5.73,1.9-5.87,2.33-2.47,6.24,2.5,2.82,2.48,2.83-1.07.58-2.09-1.32-6.5-2.24-10.4-2.17-4.33.07-8.24-.84-10.84-2.55-5.13-3.36-10.12-3.91-11.13-1.31-.47,1.21-1.76,1.66-3.2,1.11-1.7-.66-2.21-.33-1.69,1.1a2.29,2.29,0,0,0,2.37,1.67c.9-.19,1.63.6,1.63,1.78,0,1.36.83,1.79,2.36,1.21,3.55-1.36,1.79,2.45-2.66,5.78-2.05,1.53-4.62,2.42-5.69,1.95-1.33-.54-.91-1.11,1.29-1.79,4.57-1.38,4.05-4.24-1.25-6.84-4.13-2-4.29-2.31-1.81-3.71,2.2-1.23,1.69-1.43-2.72-1.08-4.17.32-5.45-.12-5.54-1.91s-.33-1.78-.88-.4c-.43,1.05,1.58,4.07,4.45,6.7,5.65,5.16,6.72,7.5,2.69,5.8a27.54,27.54,0,0,0-4.7-1.47c-7.95-1.48-9-2.43-8.2-7.36.75-4.58.51-4.89-4.89-6.33-3.09-.83-6-2.13-6.47-2.89-1.11-1.79-12.72,2.68-20.08,7.72-3.09,2.12-6.16,3.85-6.85,3.85s-.83,1-.37,2.17.17,2.17-.65,2.17a2.22,2.22,0,0,1-1.95-1.45c-.3-.92-2.94-.66-7,.7l-6.5,2.16,5.78-.66c4-.46,5.13-.25,3.62.72-1.19.75-5.22,1.39-9,1.4-7.44,0-10.83,2.45-4.44,3.18,2.75.31,3.91,1.19,3.61,2.82-.49,3,5.3,4.21,12.43,2.56s10.37-1.61,10.37.14c0,.8-.49,1.33-1.09,1.21-2.16-.47-9,2-9,3.28,0,1.89,3.48,1.57,5.58-.51,1.46-1.45,1.6-1.24.74,1.08s-.75,2.62,1.13,1.1c1.22-1,2.64-1.37,3.17-.84s1-.42,1-2.11.64-3.44,1.44-3.91,1.44.44,1.44,2.08c0,3.45,3.64,3.92,8,1.12,1.75-1.14,5.07-1.55,8.64-1.05l5.78.8-5.12,1.77c-2.93,1-5.87,1.74-6.5,1.61-2.83-.51-4.89.2-4.89,1.71,0,.88,1,1.24,2.12.79a2.6,2.6,0,0,1,2.93.43c.47.69,2.17.88,3.92.43,2.13-.55,2.78-.28,2.08.86-.57.92-3.91,1.68-7.34,1.68-7.82,0-10.87,1.11-10.87,4,0,1.95-.42,1.86-2.84-.33a6.85,6.85,0,0,0-6.84-1.62c-2.88.67-3.43.53-2-.48,1.16-.77,1.67-1.86,1.11-2.41s-1.89-.27-3,.63-2.34,1.27-2.78.83-.71.37-.59,1.82c.19,2.29-.76,2.56-7.5,2.12s-7.67-.21-7.22,2.17c.9,4.68,27.52,5.87,30.46,1.41.67-1,1.07-.69,1.08.9a2.56,2.56,0,0,0,2.56,2.55h.28c4,0,5.28-2.94,1.67-3.92-1.67-.44-3-1.37-3-2.07,0-2,3.78-1.52,5.58.65,1,1.13,3.38,1.66,6,1.28s4.37,0,4.37,1-1.66,1.61-3.68,1.61c-2.69,0-3.57.67-3.26,2.49.36,2.06-.53,2.42-5,2.06-3.18-.26-5.42.21-5.42,1.12a1.52,1.52,0,0,1-1.45,1.56c-.79,0-1.45-.93-1.45-2.07,0-1.6-1-1.8-4.2-.87a10.37,10.37,0,0,1-8.12-.82,24.54,24.54,0,0,0-9.45-2c-4.08,0-6.12-.85-7.82-3.21-1.89-2.71-3.42-3.16-9.78-2.88-4.15.18-8.09.88-8.8,1.56s.18,3.91,2,7.25c2.53,4.89,3.53,5.7,5.15,4.37,1.09-.92,2-1.1,2-.4s.51.49,1.12-.45,4.65-2.12,9-2.61l7.93-.89-4.89,2.24a24,24,0,0,1-7.3,2.24,6.21,6.21,0,0,0-3.81,1.37c-.76.75-5.93,1.76-11.5,2.24a141.13,141.13,0,0,1-23.62.46c-6.18-.29-10.35.89-9.63,12.22-.48,6-1.49,16.36-2.16,21.93-1.08,8.8.72,12.95,3.59,21.37a75,75,0,0,0,8.53,16.82c2.86,3.91,4,5.31,4,7.35L333,493.78l-36.3-1.54C283.06,492.5,259.58,497.29,259.22,496.69Zm25.58-95.07c.22-5.13-.25-9.7-1-10.18s-1.44-.37-1.47.28-.41,6-.86,12c-.67,8.92-.47,10.51,1.09,9C283.6,411.74,284.58,407,284.8,401.62Zm55.11-3.41c.26-1.73-.23-3.15-1.08-3.15a1.5,1.5,0,0,0-1.55,1.44c0,.8-1,1.45-2.17,1.45S333,397.3,333,396.5s1-1.44,2.27-1.44c1.52,0,2.11-1.06,1.8-3.25-.7-4.89-8.93-3.83-14.22,1.84-2.21,2.36-5.24,4.35-6.7,4.41s-.49.91,2.38,1.95,8.64,1.73,13,1.6c7-.18,8-.6,8.41-3.36Zm-20.8-6.84c3.22-3.22,2.82-5.32-.63-3.17-1.58,1-2.88,2.62-2.88,3.63,0,2.39.76,2.3,3.51-.45Zm-70.6-9.05c-2.84-2.84-3.17-.16-.57,4.55,1.61,2.93,1.79,2.93,2.31.46a6.33,6.33,0,0,0-1.74-5Zm96,2.37c0-.81-1-1.12-2.08-.68s-4.16.21-6.69-.52c-2.94-.84-5.61-.79-7.32.13-4.89,2.61-2.86,3.52,6.69,3,5.17-.25,9.4-1.14,9.4-1.95Zm-59.77-4.42c-.4-1-.72-.18-.72,1.81s.32,2.79.72,1.81a5.58,5.58,0,0,0,0-3.61Zm10.3-4.7c2.19-7.72,3-20.33,1.56-22.68-.85-1.33-1.21-.91-1.23,1.41,0,1.82-1.17,5.73-2.57,8.68-2.13,4.47-2.84,11.65-2,19.75.31,2.56,2.53-1.24,4.16-7.15Zm48,3.61c2-1.24,2-1.39,0-1.27a29.4,29.4,0,0,0-5.78,1.27l-3.62,1.17,3.62.11a11.84,11.84,0,0,0,5.78-1.27Zm13.74,0a3.17,3.17,0,0,0-2.33-1.44c-.81,0-1.05.65-.56,1.44a3.13,3.13,0,0,0,2.34,1.45c.8,0,1-.64.55-1.44Zm-242.9-4.8c.92-.87.14-1.05-2.16-.47a32.26,32.26,0,0,1-5.43.92A2,2,0,0,0,104.5,377c0,1.78.67,1.86,4,.45a23.69,23.69,0,0,0,5.42-3Zm240-1c-1.15-1.85-2.17-1.85-2.17,0a1.5,1.5,0,0,0,1.53,1.45c.84,0,1.13-.62.64-1.44ZM108.84,372c0-.79-1.58-1.44-3.53-1.44s-3.91-.61-4.36-1.35c-1.25-2-6.36-1.25-5.57.84,1,2.63,13.46,4.44,13.46,2Zm32.53-.53c10.28-.73,26.66-4.42,24.93-5.62-1.07-.75,0-.89,2.77-.35,7.27,1.43,6.71-1.26-1-4.8-3.91-1.78-7.45-3.91-7.93-4.65-1.45-2.35-3.35-1.55-2.72,1.14.68,2.86-4.46,10.26-6,8.68-.57-.56-.28-1.95.64-3a4.89,4.89,0,0,0,.77-4.37c-1-2.78-.84-2.74-5.55-1-2.68,1-3.71,1-3.71-.28,0-2.86-2.6.7-3.66,5-.63,2.55-.41,4,.61,4s1.61.52,1.61,1.16c0,1.47-6,1.36-8.32-.17-1-.63-1.81-.67-1.81-.08s-.89-.13-2-1.63c-1.84-2.51-2.18-2.54-4.34-.39-1.73,1.73-1.86,2.51-.53,3.05s1.37.75-.07.84-1.52.5,0,2.2c1.25,1.39,3.54,1.83,6.92,1.32,2.74-.37,7-.85,9.35-1Zm104.1.53a3.16,3.16,0,0,0-2.3-1.43c-.81,0-1,.65-.56,1.44a3.13,3.13,0,0,0,2.34,1.45c.77,0,1-.64.52-1.45Zm-130.85-1.43c1.76-1.13,1.55-1.4-1.08-1.42-1.79,0-3.25.62-3.25,1.42C110.29,372.34,111.83,372.34,114.62,370.52Zm151.12-7.3c.49-1.55,1.5-2.82,2.24-2.82s1.35-1,1.35-2.17c0-3.58-4.08-2.45-6.55,1.81-2.17,3.73-2.18,2.65,0-2.69.78-2-.22-2.31-6.23-2.26-5.44.05-7,.53-6.38,2.05a2.1,2.1,0,0,0,2.7,1.23h0c1.33-.51,1.85.27,1.62,2.44-.24,2.34.39,3.14,2.35,2.94s2.26.2,1.08,1.37a5.72,5.72,0,0,0-1.59,3.37c0,2.81,8.34-1.89,9.4-5.27Zm95.4,5.87c.49-.8-.44-1.45-2.09-1.45s-2.93.65-2.93,1.45c0,1.87,3.86,1.87,5,0Zm-252.4-1.9c1.47.39,3.06.07,3.54-.7s-2-2.14-5.54-3c-8-2-10.91-2-10.91-.07,0,.84.65,1.13,1.43.64s2.58-.22,4,.6,1.89,1.5,1.1,1.54-.47.69.72,1.44,2.36.82,2.59.14,1.64-.95,3.09-.57ZM78.58,365.6c-1.15-1.39-1.21-2.34-.17-2.94,2.18-1.35,1.86-3.66-.5-3.66A3.5,3.5,0,0,1,75,356.75c-.48-1.25-1.52-1.86-2.33-1.36s-1.45.2-1.45-.64-1.3-1.54-2.89-1.54-2.93,1-2.93,2.18.69,2.17,1.53,2.17,1.13-.66.64-1.45-.21-1.45.63-1.45,1.54,1.34,1.54,2.94,1.72,4.55,3.82,6.5c4.13,3.78,7.83,4.9,5,1.49Zm11.46.59c1.87-1.21,1.83-1.41-.27-1.42a4.22,4.22,0,0,0-3.33,1.42c-1.14,1.82.78,1.82,3.6,0Zm252.48-3.91c-1.18-1.19-5.24.71-5.24,2.48,0,1.06.93,1,3-.08,1.66-.89,2.64-2,2.23-2.41Zm-217.77.29c0-1.19-.63-2.16-1.4-2.16s-1,1-.57,2.16c1.07,2.77,2,2.77,2,0Zm10.75-.66c2.52-2.78,2.49-2.8-1.21-1.09-2.07,1-3.78,2.24-3.78,2.84,0,2,2.42,1.11,5.07-1.76Zm-74.41-7.83c-1.64-1.68-6.23.11-5.07,2,.5.82-.05,1.09-1.28.62-1.84-.72-1.91-.29-.44,2.83L56,363.16l3.15-3.91c1.81-2.2,2.64-4.47,1.94-5.18Zm268.78,4.27c-.37-.38-1.55.74-2.6,2.49-1.83,3.05-1.8,3.08.69.7,1.47-1.39,2.33-2.83,2-3.21ZM53.14,360.42c-1.16-1.88-3.62-1.88-3.62,0,0,.79,1,1.44,2.25,1.44s1.9-.66,1.41-1.46Zm54.94-2.87c0-2.58-4.77-3.79-6.85-1.73a2.68,2.68,0,0,0-.43,3.11c1.53,2.3,7.32,1.2,7.32-1.4Zm93.26,1.7a9.79,9.79,0,0,0-1.88-3.74c-2.18-2.93-9.78-2.74-10.83.35-.52,1.58,0,1.62,2.55.24,2.94-1.56,3.11-1.43,2.24,1.3s-.36,3,3.48,3c2.48,0,4.47-.55,4.47-1.19Zm118.11-2.69c3.36-5.06-.39-5.41-4-.37-2.82,4-2.93,4.44-.64,4A8.84,8.84,0,0,0,319.45,356.56ZM185.72,358a2.92,2.92,0,0,0-2.78.11c-.48.48.37.83,1.9.76,1.72-.07,2.06-.41.91-.87Zm164.73-1.42c1.8-2.18,1.68-2.25-1.27-.68-3.36,1.79-4.19,3.09-1.95,3.09.69,0,2.16-1.09,3.25-2.41Zm-174.16-2.93c-.42-.43-1.54-.31-2.48.27-1.25.78-1.18,1.36.27,2.27,2,1.23,3.83-.91,2.24-2.47ZM99.48,351.2c.08-4.37-1.45-5.09-2.93-1.35-.55,1.42-.23,2.75.73,3.07,1.21.4,1.13,1-.28,2-1.61,1.12-1.57,1.27.19.79,1.3-.31,2.28-2.27,2.32-4.43Zm12.23,2.74c0-2.17-2.6-4.48-3.75-3.33s1,5.41,2.46,5.41c.71,0,1.32-.9,1.32-2ZM343,351.63c0-2.47-2.74-1.48-4.39,1.61-1.47,2.74-1.35,2.87,1.39,1.39,1.68-.84,3-2.19,3-3Zm81,2.22c0-1.19-.54-2.16-1.2-2.16s-1.21,1-1.21,2.16.55,2.17,1.21,2.17,1.23-.94,1.23-2.13Zm-293-1.43c.46-1.18.37-2-.2-1.86s-2.41-.48-4.1-1.4c-3-1.7-4.89-1.14-4.89,1.47,0,.76,1,1,2.06.57a3.75,3.75,0,0,1,3.8,1.29c2.18,2.63,2.35,2.63,3.36,0Zm7,1.17a2.93,2.93,0,0,0-2.77.11c-.48.48.37.83,1.9.77,1.71,0,2.05-.38.9-.84Zm139.4-3.95c3.13-4.29,2.54-5.14-3.56-5.14-4.55,0-5.77.6-6.44,3.14-.46,1.73-.58,3.55-.26,4C268.37,353.69,275.44,352.27,277.4,349.64Zm94.11-10.92c1.59,0,10.6-9.84,10.6-11.56,0-.42-1.36-1.6-3-2.64-2.66-1.66-3.69-1.32-9,2.93-3.33,2.64-9.42,7-13.55,9.78-8.35,5.55-9.25,7.89-1.22,3.14,5.33-3.15,7.33-2.3,2.17.92-1.63,1-2.51,2.56-2,3.45.7,1.12-.22,1.31-2.93.62-4.51-1.13-9.93.15-8.75,2.05.43.71,1.91,1,3.28.51,2.28-.7,2.27-.62-.05.86-1.39.9-2.53,2.19-2.53,2.88s5.69-2,12.65-5.87,13.39-7.07,14.33-7.07ZM45.22,350.28c0-.79-1-1.45-2.16-1.45s-2.17.66-2.17,1.45,1,1.45,2.17,1.45S45.22,351.07,45.22,350.28Zm101.22-.56c0-2.48-9.57-7.2-12.39-6.11-3.42,1.31-2.36,3.64,2.63,5.82C142.8,352.11,146.44,352.22,146.44,349.72Zm49.15.56a1.51,1.51,0,0,0-1.53-1.45c-.84,0-1.13.66-.64,1.45,1.15,1.85,2.17,1.85,2.17,0Zm55.4-3.76c-1.23-3.2-6.25-5.49-8.07-3.67-2.19,2.19,4.73,9.21,7.13,7.23A3.4,3.4,0,0,0,251,346.52Zm66.29-.59c1.34-3.18,1.79-5.77,1-5.77-1.2,0-5.61,8.48-5.61,10.76.05,2.68,2.59-.1,4.64-5ZM69.84,347.22c0-.8-.66-1.05-1.45-.56A3.18,3.18,0,0,0,66.94,349c0,.8.65,1.05,1.45.56a3.21,3.21,0,0,0,1.42-2.34Zm195,1.74c2.49-1.58,1-5.87-2-5.87-1.4,0-2.21,1.33-2.21,3.61-.05,3.81.89,4.31,4.14,2.26Zm61.43-1.4c2.31-2.55,2.31-2.77-.1-3.69s-6.25,2.29-6.25,5.24C319.93,351.25,323.78,350.31,326.3,347.56Zm63.85-3.41c4.29-2.59,7.59-5.36,7.36-6.16s-2.83-1.65-5.76-1.9c-4.53-.38-5.87.26-9.28,4.3-2.18,2.61-5.21,6-6.72,7.54-2.72,2.76-2.69,2.79,1.95,1.86,2.55-.52,8.16-3.05,12.43-5.64Zm-277.57-1.87c-2.49-3.78-9-5.13-7.6-1.57a3.34,3.34,0,0,1-.55,3.3c-.78.78-.16,1.31,1.56,1.31s2.87-.87,2.87-1.95.67-1.54,1.47-1a1.79,1.79,0,0,1,.5,2.48h0c-.58.93-.3,1.15.7.54s1.71,0,1.78,1.58.41,1.89.86.76-.32-3.44-1.61-5.41Zm330.27,5.28c0-1.95-8.52-2.78-10.9-1-1.66,1.23-.68,1.66,4.39,2,3.56.16,6.49-.26,6.49-1Zm28.36-1.83,2.76-3.1-4.34,1a40.53,40.53,0,0,1-6.85,1c-2,0-2.16.4-.72,2,2.53,3,5.95,2.65,9.1-.89ZM53.33,343.44c-.48-.48-.82.38-.76,1.9.06,1.68.41,2,.88.87A3,3,0,0,0,53.33,343.44Zm67.08,1.63c0-.32-1-.57-2.17-.57s-2.17.63-2.17,1.4,1,1,2.17.57S120.41,345.38,120.41,345.07Zm134.46.14a2.15,2.15,0,0,0-2.12-2.16c-1.3,0-1.8.84-1.29,2.16,1.08,2.81,3.44,2.81,3.44,0Zm234.64-.71c-.57-2.22,0-2.93,2.3-2.93,1.69,0,3.06-.74,3.06-1.63,0-2.29-8.8-.36-11.54,2.54-1.95,2.06-1.89,2.2.89,1.36,2.08-.61,3.37-.19,3.91,1.3,1.26,3.25,2.27,2.74,1.38-.64Zm-422.6-.81c0-.35-.65-.64-1.44-.64A1.5,1.5,0,0,0,64,344.58c0,.84.65,1.13,1.45.63s1.44-1.17,1.44-1.52Zm23.13,0c0-.35-.64-.64-1.44-.64a1.49,1.49,0,0,0-1.44,1.53c0,.84.64,1.13,1.44.63S90,344,90,343.69Zm78.08.72c0-.84-.65-1.13-1.45-.63-1.84,1.14-1.84,2.16,0,2.16a1.5,1.5,0,0,0,1.45-1.53Zm287,.09c-1.15-1.86-2.18-1.86-2.18,0a1.51,1.51,0,0,0,1.54,1.44c.84,0,1.12-.65.64-1.44Zm49,.25c.42-.67-1.49-1.22-4.24-1.22s-5,.4-5,.9C494.87,345.83,503.26,346.12,504.11,344.75ZM128.9,340c-3.55-2.24-4.73-1.37-1.88,1.38,1.53,1.48,3,2.05,3.32,1.28S130,340.71,128.9,340Zm286.46,3a8.92,8.92,0,0,0-4.34-1.32c-1.43,0-1.19.5.72,1.32,4,1.71,6.26,1.71,3.62,0Zm11.83.46a2.93,2.93,0,0,0-2.77.11c-.47.48.38.82,1.9.76,1.69-.06,2-.4.87-.86Zm18.53-.46c0-.8-1.14-1.43-2.54-1.42-2.16,0-2.21.22-.35,1.42,2.73,1.77,2.89,1.77,2.89,0ZM96.19,339.9c-.87-3.32-1.29-3.32-2.16,0-.4,1.51.07,2.65,1.08,2.65s1.47-1.13,1.08-2.64Zm235.31.88c0-.35-1.79-.58-4-.53-3.47.08-3.61.25-1.08,1.27,2.69,1.09,5.06.75,5.06-.73Zm88.91.82c-1.14-1.86-2.17-1.86-2.17,0a1.51,1.51,0,0,0,1.54,1.44c.84,0,1.12-.64.63-1.43Zm-339-1.6c0-.8-.61-1.09-1.34-.63a1.68,1.68,0,0,1-2.26-.64c-1.28-2.08-5.08-1.83-5.07.33,0,1,2,2,4.34,2.11S81.37,340.82,81.37,340Zm84.24-2.39c-.19-1.78.27-3.24,1-3.24s1-1,.51-2.29c-.78-2-1.17-2-3.42.36a17.7,17.7,0,0,0-3.54,6c-.88,2.93-.57,3.31,2.38,2.93,2.53-.41,3.33-1.33,3-3.77Zm7.24-.45c-.46-1.77-1.31-2.46-2.08-1.69-1.53,1.54,0,6.44,1.7,5.39.64-.38.82-2.05.38-3.69Zm102.7.6c-.26-2.41.29-2.93,2.47-2.38,2.46.65,2.65.24,1.63-3.39-.65-2.28-.91-4.89-.6-5.81,1-2.93-2-3.41-6.62-1.08s-5.61,4.08-3.07,5.65c1,.6,1,1.84-.05,3.71-1.09,2-1,2.79.17,2.79s1.11.7-.22,2.3c-1.67,2-1.39,2.23,2.35,1.8,3.33-.37,4.15-1.12,3.91-3.58Zm163,1.66c1.49-1.81,1.3-2.17-1.19-2.17-3.16,0-5.13,1.88-3.59,3.42s2.8,1.11,4.75-1.24Zm65.13-.21c1-1,.05-1.26-2.94-.82-2.4.35-4.38,1.11-4.38,1.68,0,1.53,5.56.91,7.29-.85Zm-315.25-.5a1.45,1.45,0,1,0-1.45,1.45A1.45,1.45,0,0,0,188.4,338.71Zm58.21-1.56c-.57-2.21-1.1-2.52-2-1.16-1.24,2-.47,4.17,1.51,4.17.66,0,.86-1.36.42-3Zm5.4.2c0-2.84-2.45-5.35-3.85-3.91-1.13,1.13,1,6.76,2.5,6.76.71,0,1.31-1.3,1.31-2.85Zm101.2-1.46c1.2-.81,1.43-1.48.52-1.49s-3.18,1.32-5.05,2.93c-2.68,2.34-2.8,2.65-.52,1.49a57.14,57.14,0,0,0,5-2.93Zm78.08,2.82c0-.79-1.79-1.44-4-1.42-3.09,0-3.49.33-1.8,1.42,2.8,1.83,5.75,1.83,5.75,0Zm-173.11-2c2.26-1.72,2.3-2.15.36-3.75-1.2-1-2.18-1.29-2.18-.66s-1.63-.38-3.62-2.24c-3-2.81-3.62-2.94-3.62-1a2.31,2.31,0,0,0,2.17,2.41c1.35,0,2.17,1.37,2.17,3.62,0,4.07,1,4.41,4.68,1.6Zm-156.49-.86c0-.81-1-1.45-2.26-1.45s-1.83-.69-1.22-1.67.4-1.29-.57-.68a2.63,2.63,0,0,0-.79,3.11c.83,2.38,4.76,2.91,4.76.69Zm77.15-.73c.46-1.19.21-2.17-.57-2.17s-1.4,1-1.4,2.17c-.07,2.78.83,2.78,1.89,0Zm34.91.73a3.17,3.17,0,0,0-2.35-1.45c-.79,0-1,.64-.55,1.45a3.16,3.16,0,0,0,2.34,1.43c.71,0,1-.64.48-1.43Zm120.75-2.27c1.7-4.44,1.82-7.83.32-7.83-2,0-9,7.33-9,9.46,0,1.29,1.42,2.1,3.66,2.1,2.5,0,4-1.1,5-3.73Zm94.31-.14a5.58,5.58,0,0,0-3.61,0c-1,.4-.19.72,1.8.72s2.73-.32,1.73-.72Zm-321.34-1.77c0-.71-1.3-1.61-2.93-2s-2.89-.21-2.89.45,1.14,1.51,2.54,1.87,2.69.74,2.88.83.32-.41.32-1.11ZM158.08,327c0-.67-1-.85-2.17-.39a3.56,3.56,0,0,0-2.17,3c0,1.79.4,1.86,2.17.4,1.11-1,2.09-2.35,2.09-3Zm105.55,3.61a33.41,33.41,0,0,0-2.34-5.79c-2.63-5.54-5.5-6.3-7.83-2-.92,1.71-1,2.93-.17,2.93a2.76,2.76,0,0,0,2.11-1.81c.56-1.39.75-1.37.84.09.06,1.07.85,1.44,1.81.84,1.17-.72,1.37-.22.67,1.62-.61,1.58-.27,3.11.84,3.82,2.19,1.36,4,1.52,4,.32Zm86.45-4.24c-1.16-1.18-6.77,1.14-7.52,3.1-.64,1.66,0,1.61,3.65-.26,2.36-1.26,4.1-2.54,3.8-2.84ZM363.46,329c1.8-2.29,1.74-2.34-.54-.54a9.23,9.23,0,0,0-2.54,2.52C360.41,332.18,361.61,331.37,363.46,329ZM83,327.63c1.8-2.18,1.69-2.24-1.27-.67-3.36,1.79-4.19,3.08-2,3.08.7,0,2.16-1.08,3.25-2.41Zm7.57.23c.45-1.18.2-2.16-.56-2.16s-1.41,1-1.41,2.16c.07,2.78.94,2.78,2,0Zm4.54.73c-1.14-1.85-2.17-1.85-2.17,0A1.49,1.49,0,0,0,94.43,330h0c.87,0,1.16-.65.67-1.45Zm223.2-2.35c1.79-3.91,1.08-6.44-1.13-4.06-1.95,2.11-3.37,7.83-1.95,7.83.79,0,2.16-1.69,3.11-3.77Zm101.38,2.62c0-.64,2.29-2.07,5.09-3.17l5.08-1.95-4-1.67c-4.53-1.88-10.5-.07-10.5,3.18,0,1.06-.66,2-1.45,2a1.46,1.46,0,0,0-1.45,1.44c0,.8,1.63,1.44,3.62,1.44s3.64-.58,3.64-1.23ZM75.2,325c3.38-1.46,6.14-3.12,6.14-3.71,0-2.17-6.22-2.61-8.24-.59A7.22,7.22,0,0,1,69,322.81c-1.14,0-2.07,1.36-2.07,3s.49,2.75,1.09,2.43,3.87-1.77,7.26-3.23Zm324.83.43c3.56-1.73,6.14-3.69,5.74-4.34s.8-1.2,2.67-1.2c5.08,0,11.32-3.3,10.87-5.76-1.2-6.48-16-1.24-22.5,8-2.51,3.57-4.27,6.49-3.91,6.49a60,60,0,0,0,7.16-3.14Zm10.44,1c2.79-2.79.49-2.83-3.18-.05-1.76,1.33-2.09,2.14-.9,2.17a7.06,7.06,0,0,0,4.11-2.12Zm-273.85-2.54c.48-1.41,1.15-1.36,3,.21,2.79,2.31,4.22,1.69,2.5-1.08-1.95-3.09-8.19-3.08-8.43,0s2,3.65,2.94.87Zm247.54-2c-3.91-2.87-5.34-2.38-2.56.86,1.32,1.55,3,2.43,3.81,2s.28-1.75-1.19-2.82Zm-236.34-.51a1.51,1.51,0,0,0-1.53-1.45c-.84,0-1.13.66-.63,1.45,1.2,1.86,2.22,1.86,2.22,0Zm119.48-.44c.55-.55,0-1-1.32-1a4.07,4.07,0,0,0-3.14,1.32c-.87,1.47,3,1.21,4.52-.34Zm59.8.36c0-.85-.65-1.13-1.45-.64-1.85,1.14-1.85,2.17,0,2.17a1.49,1.49,0,0,0,1.51-1.47v-.06Zm27.65.08c3.33,0,3.57-2.25.36-3.48-2.76-1.06-12.11,1.95-12.11,3.91,0,.74,2,.93,4.52.44a47,47,0,0,1,7.29-.87Zm88.51-.24c2.3.17,4.89-.26,5.87-1a19.33,19.33,0,0,1,5.8-2.28c3.53-.84,16.8-12.17,16.8-14.33,0-.39-4.07.53-9,2s-10.18,2.75-11.57,2.76-5.44,2.94-9,6.43c-6.28,6.2-8.4,9.38-4.75,7.12,1-.59,3.66-.94,6-.76Zm-332.53-2.58c-1.33-1.54-2.93-2.48-3.6-2.08-2,1.24-1.33,3.21,1.34,3.91,4.53,1.18,4.71,1.05,2.27-1.83Zm118.11.57c0-.35-.66-.64-1.45-.64a1.51,1.51,0,0,0-1.45,1.53c0,.84.66,1.13,1.45.64s1.46-1.18,1.46-1.53Zm160.48,0c0-.35-1-.64-2.26-.64s-1.83.66-1.34,1.47c.84,1.33,3.61.7,3.61-.83Zm44.55-1c.3-1.54-.41-2.53-1.79-2.53s-2.28-.7-2.28-1.54-.64-1.12-1.44-.63-1.45,2.53-1.45,4.53c0,2.93.62,3.54,3.24,3.17,1.78-.28,3.47-1.67,3.73-3Zm-310.57.35c0-.8-1-1.44-2.25-1.44s-1.86.64-1.36,1.44C120.84,320.34,123.3,320.34,123.3,318.48Zm154-.72c0-.8-2.44-1.65-5.42-1.9-5.17-.43-7.43,1.53-3.62,3.14,2.86,1.2,9,.35,9-1.25Zm-174.34-3.69c-3.13-1.95-4.89.35-2,2.52,2,1.43,2.93,1.51,3.29.33a2.74,2.74,0,0,0-1.34-2.86ZM208.57,317a1.45,1.45,0,1,0-1.44,1.45,1.45,1.45,0,0,0,1.44-1.45h0Zm-93.45-2.17c-.91-2.37-3.41-3-3.41-.84,0,1.09,1,1.83,3.91,2.93.22.05,0-.88-.47-2.07Zm205.51-.07,4.33-2.11-4.14.8a7.56,7.56,0,0,1-6.84-1.67c-2.6-2.35-2.72-2.29-2.72,1.37,0,4.47,2.63,4.91,9.4,1.63Zm-193-1.38c0-2.78-.91-2.78-2,0-.45,1.19-.19,2.17.58,2.17s1.41-1,1.41-2.15Zm29.21-.15c-2.62-1.14-4.42-2.65-4-3.34s-.84-1.17-2.82-1.06-3.6.36-3.6.54c0,.91,11.14,6,13,6,1.22,0,.06-1-2.57-2.11ZM439.75,308c-3.05-1.12-8.52,2-8.52,4.79,0,2.51,5.28,2.09,8.37-.67l3.32-2.94Zm-328,3.91c1.49-1.81,1.3-2.16-1.22-2.16-2.1,0-2.77.67-2.2,2.16,1.06,2.73,1.22,2.73,3.45,0Zm10.47-.31a3,3,0,0,1-1.8-2.7c0-1.13-1.3-2-2.93-2-3,0-3.91,2.1-1.45,3.61.79.49,1.45.06,1.45-1s1-.37,2.32,1.45,2.74,2.86,3.24,2.3.2-1.26-.8-1.62Zm236.76,1a1.45,1.45,0,1,0-1.45,1.44h0a1.44,1.44,0,0,0,1.46-1.41Zm24.58-.59c0-1.32-1-1.77-2.93-1.27-3.75,1-3.75,3.3,0,3.3,1.65,0,3-.87,3-2Zm39.66.74c.44-.71-.13-1.65-1.28-2.09-1.4-.54-1.82-.11-1.28,1.29,1,2.46,1.53,2.63,2.59.84Zm-258.6-3c0-2-1-2.93-3.19-2.93a18.86,18.86,0,0,1-5.48-.88c-3.63-1.4-1,3.76,2.63,5.24,4.82,2,6.07,1.71,6.07-1.39Zm166.86-1.9c0-.64-.62-.76-1.42-.27a4.23,4.23,0,0,0-1.42,3.33c0,2.12.21,2.16,1.42.28a8.73,8.73,0,0,0,1.45-3.3Zm-257.33,1.9a1.49,1.49,0,0,0-1.52-1.45h0c-.85,0-1.14.65-.65,1.45,1.17,1.88,2.2,1.88,2.2,0ZM245.64,305c5.07-6.85,7.12-13.61,6.49-21.52-.29-3.83.42-6.14,2.6-8.31,1.65-1.66,3-3.63,3-4.39s-2.76-4-6.14-7.16c-5.12-4.8-6.47-5.43-8.09-3.84s-2.89,1.56-7.48-.25c-3.62-1.42-5.27-2.86-4.77-4.17.42-1.09.12-1.95-.68-1.95s-1.85,1.63-2.35,3.61-1.67,3.61-2.61,3.61c-1.28,0-1.29-.41-.06-1.64s.31-2.33-3.64-4.33c-2.93-1.49-5.38-2.7-5.51-2.7-1.08,0-1.76,9.46-.77,10.69a20.29,20.29,0,0,1,2.29,6.3c.55,2.59,1.76,4.72,2.7,4.75s.54.91-.87,2-2.25,2.82-1.87,3.91a51.43,51.43,0,0,1,1.37,6.84c.74,5.14,3.75,9.78,3.83,5.87,0-1.51.46-1.38,1.56.52,1.19,2.06,2,2.25,3.57.91s1.91-.93,1.14,3.17c-.5,2.68-1,5.53-1.08,6.32s1.29,1.29,3.08,1.1c2.36-.25,3.25.41,3.25,2.43,0,2.33,1.61,3.5,5.78,4.21.43.14,2.79-2.55,5.29-5.9Zm75.67,4.79c2.89-1.82,1.36-3-2.54-2-1.74.45-2.82,1.4-2.38,2.11,1,1.62,2.26,1.59,4.95-.11Zm96.11-1.69c.82-.75.24-1.24-1.45-1.23-4.36,0-9.32,1.63-9.32,3s8.84.07,10.8-1.73ZM79.83,306.75c-.89-1.65-2-2.66-2.4-2.23-1.19,1.19.72,5.25,2.47,5.25C81,309.8,81,308.87,79.83,306.75ZM85,308.32c-1.15-1.86-2.17-1.86-2.17,0a1.5,1.5,0,0,0,1.53,1.45c.87,0,1.16-.63.67-1.42ZM190,302.16c-2.78-2.77-3.44-2.93-4.63-1.06-1.86,2.93-1.77,5.78.19,5.78.88,0,1.22-1,.76-2.18s-.14-2.17.71-2.17,1.88,1.35,2.31,3c.56,2.13,1.23,2.54,2.34,1.42s.67-2.45-1.65-4.76Zm-121,2.69c1.82.47,3.76.14,4.3-.72s-.07-1.57-1.38-1.57-2-.64-1.45-1.44c1-1.53,10.84-1.35,10.85.21,0,.51,1,1.3,2.17,1.76,3.91,1.52,2.25-1.63-2.53-4.69-4.34-2.78-4.43-3-1.33-3,1.85,0,5.31,2,7.69,4.32,5.24,5.22,11.35,7.25,11.35,3.76,0-2.36,2.17-3.2,3.26-1.23.33.59.52.52.43-.16s-2.75-2.17-5.87-3.31c-22.26-8.09-29.34-9.36-32.28-5.8-2.09,2.52-.32,4.3,2.2,2.21,1.49-1.23,2-1.07,2,.73,0,2.66-1.9,3-5.64,1-4.08-2.18-9.05-.22-8.53,3.36.45,3.19,10.08,7.62,11,5.09C65.49,304.6,67.21,304.39,69.08,304.85ZM33,304c.49-.79-.12-1.45-1.36-1.45s-2.26.66-2.26,1.45c0,1.88,2.43,1.88,3.59,0Zm106.6.49a5.58,5.58,0,0,0-3.61,0c-1,.4-.18.73,1.81.73s2.79-.33,1.79-.73Zm215.69-.32c.44-.71-.54-1.64-2.16-2.06-2.43-.63-2.65-.4-1.26,1.28,2,2.37,2.35,2.49,3.41.78Zm35.53-.17c2.64-1.7.35-1.7-3.62,0-1.95.82-2.15,1.27-.72,1.32a8.89,8.89,0,0,0,4.33-1.32Zm-240.73-1.45c.49-.79.24-1.44-.55-1.44a3.21,3.21,0,0,0-2.35,1.44c-.49.8-.23,1.45.56,1.45a3.16,3.16,0,0,0,2.33-1.45Zm18.07.32c0-1.22-8.87-4.93-9.73-4.07-.29.28.53,1.57,1.81,2.86,2.39,2.4,7.91,3.24,7.91,1.21Zm99.76-.19a2.33,2.33,0,0,0-1.65-1.88c-1.81-.6.46-5.93,4.05-9.52,2.57-2.58,2.45-3.92-.59-6.21-1.39-1.06-2.1-1.42-1.59-.81s-.56,5-2.39,9.65c-2.34,5.93-2.84,8.7-1.66,9.18,2.71,1.12,3.82,1,3.82-.41Zm136-1.89c0-.79-1-1-2.29-.56a14.61,14.61,0,0,1-2.89.88c-.33,0-.6.59-.6,1.31s1.3,1,2.88.55,2.85-1.4,2.85-2.18Zm39.74,1.74a1.65,1.65,0,0,0-2.25-.63c-2,1.24-1.63,2.1.9,2.1,1.2,0,1.8-.66,1.31-1.47Zm10.27-2.14c5.87-4,5.4-4.5-1.83-1.88-2.65,1-4.81,2.58-4.81,3.61,0,2.56.47,2.43,6.59-1.73Zm47.68,1.09a3.74,3.74,0,0,0-3.13-2.89c-2.53-.32-2.52-.25.14.87,1.59.67,2.73,1.64,2.53,2.15-.53,1.4-.44,2.39.24,2.39.27,0,.37-1.17.17-2.52Zm-481.6-1.86c-1.47-1.63-3.5-2.63-4.52-2.24a2.19,2.19,0,0,1-2.58-.47c-.4-.65-3.54-1.57-7-2a69.86,69.86,0,0,1-9.07-1.77c-2.27-.72-2.1-.3.78,2.11l5.53,4.6c1,.88,3.44,1.3,5.32,1a8.79,8.79,0,0,1,5.33.56,12.38,12.38,0,0,0,5.38,1.22c3.35,0,3.36-.08.76-2.95Zm417.62.68c2.37-1.4,2.14-1.95-2.52-6.79-2.82-2.94-5.12-6.62-5.12-8.27,0-2.84-.17-2.87-3.53-.68-2.28,1.49-3.21,3.13-2.64,4.62.67,1.72.27,2.08-1.53,1.38-1.33-.51-2.42-.33-2.42.39,0,2.35,2.57,3,6.34,1.55,5-1.91,6.41.74,2.25,4.35a14,14,0,0,1-8.08,2.82c-2.67,0-4.89.49-4.83,1.08-.09,1.68,19.07,1.28,22-.45Zm28.51-.91c0-1.88-6.15-.84-6.85,1.17-.33,1,.82,1.36,3.14.92,2-.39,3.61-1.32,3.61-2.09Zm-415-.48c0-1.19-.69-2.17-1.53-2.17s-1,.81-.44,1.81c.73,1.22.3,1.18-1.36-.17-2.12-1.72-2.46-1.67-2.46.36,0,1.38,1.19,2.35,2.94,2.35S51,300.16,51,298.92Zm75.18.73c-1.87-1.22-1.83-1.41.28-1.43a4.21,4.21,0,0,1,3.34,1.43c1.39,2.25,6.5,1.7,7.45-.81A2.25,2.25,0,0,1,140,297.3a2.22,2.22,0,0,0,2.72-1.53c.69-1.77.12-2-2.73-1.33s-3.41.43-2.76-1.29c1.12-2.88-1.54-2.78-4.49.17a10,10,0,0,1-6.18,2.35,9.38,9.38,0,0,0-5.71,1.88c-1.54,1.56-1.31,2,1.37,2.52,5.62,1.11,6.21,1,4-.39Zm57.07-1.38c.46-.75-.43-2.06-2-2.89-4.09-2.2-4.77-1.88-3,1.37s3.62,3.75,5,1.55ZM-6.82,295.33c0-.79-1.14-1.42-2.53-1.41-2.16,0-2.22.22-.36,1.41C-7,297.1-6.82,297.1-6.82,295.33Zm64.23-2.65c-3.1-.67-6.75.91-5.77,2.51.48.77,2.32.62,4.41-.35,2.57-1.2,3-1.78,1.36-2.16Zm62.05,2c.45-1.16.37-2.37-.2-2.66-1.56-.81-7.64,2.74-6.55,3.82,1.72,1.75,5.92,1,6.75-1.14Zm-93.75-.24c2-.75,2-1.18.48-2.16-1.27-.8-.23-1.22,3-1.24,4.89,0,4.89-.09,2.17-2.55-5.3-4.78-13.46-10.49-15-10.49-.85,0-1.6,1.15-1.66,2.54s-.41,1.8-.85.72c-1-2.3-4-2.3-8.09,0-3.92,2.16-5.46,4.16-4.52,5.67,1.07,1.75,9.39,5.34,15.74,6.8,3.18.73,5.87,1.4,6,1.48a9.35,9.35,0,0,0,2.65-.75Zm125.71-1.31a6.84,6.84,0,0,1,5.3-1.34c4.12,1.32,4.63-2.11.55-3.66-4.83-1.84-5.45-1.81-4.24.14.69,1.13.2,1.17-1.74.13s-3.5-.89-5.52.59c-2.58,1.89-2.6,2-.18,2,1.72,0,2.32.74,1.77,2.17-1,2.74.42,2.72,4.06,0Zm45.28-.66c-1.59-2.56-4-3.91-4-2.29,0,2.31,2.09,5.17,3.78,5.17s1.7-.48.22-2.86Zm78.41.72c0-1.19-.63-2.17-1.4-2.17s-1,1-.57,2.17c1.07,2.84,2,2.84,2,0Zm175.4-.9c3.34-1.7,6.4-3.56,6.85-4.13a24.65,24.65,0,0,1,5.41-3.47c2.94-1.48,4.71-3.49,4.71-5.26,0-1.56.85-2.84,1.95-2.84s3.25-1.55,4.89-3.43a16.73,16.73,0,0,1,8.22-4.4c3.15-.59,5.23-1.82,5.23-3.08,0-2.49-3.37-2.11-9.4,1.05A42.18,42.18,0,0,1,469,270c-2.77.58-8.17,2-12,3.26-6.56,2.09-6.84,2.45-6,6.37.74,3.38.49,4-1.38,3.26-1.45-.55-2.28-.09-2.28,1.28,0,2.44-8.22,6.35-9.78,4.66-.57-.62-.22-1.41.77-1.76a3.3,3.3,0,0,0,1.81-3c0-2-.56-1.8-3.18.81L433.74,288l3.43,3.65C441.19,296.13,442.68,296.2,450.51,292.25Zm73-.49c1.8-1.79-1.54-2.67-4.1-1.07a11.87,11.87,0,0,1-5.09,1.76c-1.25,0-1.89.6-1.43,1.34.78,1.27,8.86-.26,10.62-2Zm-393.7.69c.49-.8-.09-1.45-1.28-1.45a3.91,3.91,0,0,0-3.06,1.45c-.49.79.08,1.44,1.27,1.44a4,4,0,0,0,3-1.44Zm333.26,0c0-1.7-1.12-1.7-5.06,0-2.56,1.09-2.45,1.25,1.09,1.34,2.14.06,3.94-.55,3.94-1.34Zm12.65.53c1.79-.48,3.2-2,3.14-3.23s-.41-1.63-.82-.64-1.74,1.32-3,.84c-1.47-.56-2-.31-1.33.7s-.37,1.85-2.3,2.22-2.3.7-1.11.8a20.05,20.05,0,0,0,5.4-.69ZM90,287c-2.74-2.93-5.18-5.71-5.41-6.09s-1.7.11-3.26,1.08c-3.41,2.14-3.74,0-.48-3.28,2.16-2.16,2.06-2.28-1.23-1.45a5.92,5.92,0,0,1-6-1.48c-1.3-1.31-2.37-1.95-2.37-1.38s-1.1.12-2.45-1c-1.66-1.35-2.09-1.41-1.36-.18.6,1,.4,1.81-.44,1.81s-1.53-.49-1.53-1.09-2.94-2.3-6.54-3.77c-5.23-2.14-7-2.33-8.67-.9-1.49,1.23-2.14,1.28-2.14.15a1.54,1.54,0,0,1,1.44-1.62c2.3,0,1.69-2.93-.82-3.85a3.9,3.9,0,0,0-4,1c-1.32,1.39-1.32,1.95,0,2.45a2,2,0,0,1,1,2.69v0c-.44,1.14-.12,2.07.71,2.07s1.2,2,.7,5.06c-.82,5,.5,6.44,3.35,3.58.82-.82,3.72-1.7,6.44-2a62.67,62.67,0,0,0,8.91-1.55c3.34-.92,4.16-.56,5.23,2.32.69,1.87,1,4.22.58,5.22s.36,1.8,1.63,1.8a2.15,2.15,0,0,0,2.35-1.8c0-1.19.38-1.29,1.08-.28,1,1.48,14.17,7.52,16.89,7.75.69,0-1-2.36-3.68-5.33Zm399,1.72c1.89-2,3.1-4,2.67-4.41-1.29-1.29-6.61,2.7-7.34,5.5-1,3.57.55,3.21,4.64-1.09Zm12.71-.21c1-1.2,2.44-1.73,3.32-1.19,2,1.27,5.8-1.8,5.8-4.71,0-1.86-.45-1.79-2.93.4-1.59,1.44-2.93,2.11-2.93,1.49s-.91-.36-2,.55a57.81,57.81,0,0,1-7.59,4.56l-5.57,2.94,5.05-.9c2.86-.59,5.91-1.94,6.85-3.14Zm-453.36-.82c-1.43-1.42-1.58-1.26-.8.81.54,1.42,1.35,2.22,1.79,1.78s0-1.62-1-2.59Zm62.6,1.62c-.63-1,.07-1.22,2-.62,4,1.28,5.13-1.07,1.66-3.57-1.54-1.11-2.8-2.86-2.8-3.91,0-2.13-1.7-2.41-3.69-.59-1.59,1.46-12.21.41-12.21-1.21,0-.61,1.45-.81,3.25-.47,2.57.49,3.61-.31,4.89-3.81,1-2.45,2.41-4.44,3.31-4.44,1.19,0,1.19.79,0,3-1.86,3.47-.68,5.53,1.78,3.07,1.25-1.25,2.48-.55,5,2.86l3.33,4.52,1.4-3.49,1.39-3.48.09,3.91c.09,4.13,2.2,6.51,3.65,4.15a2.39,2.39,0,0,1,2.8-.66c1.07.41,2.94-.27,4.2-1.51a8,8,0,0,1,4.67-2.25c1.5,0,2.12-.78,1.64-2-1.18-3.1,6.41-4.59,8.53-1.69,2.3,3.14,5.53,2.94,4.31-.26-.78-2-.6-2.17.86-.72,2.75,2.73,4.13,2.19,4.13-1.65,0-2.84-1-3.63-5.42-4.46-5.47-1-9-3.05-9-5.13,0-.63,2.3-.43,5.09.43,6.76,2.07,9.66-.31,6.46-5.27l-5.56-8.66c-5.3-8.24-7.58-8.86-16.43-4.38-13.83,7-18.47,10.51-18.5,14,0,2.57-.29,2.79-1.37,1.1s-2-1.64-5.87,1.21a52.17,52.17,0,0,1-11.82,5.82l-7.31,2.49,4.52,3.8c2.49,2.09,4.53,4.82,4.53,6.07a2.21,2.21,0,0,0,2.16,2.26c1.19,0,2.17.63,2.17,1.4s1.15,1,2.53.59c2.15-.69,2.2-.58.37.76-2.78,2-.52,3.64,5.71,4.06,3,.22,4.22-.23,3.62-1.22Zm80.7-.93a12.09,12.09,0,0,0-.6-6.05l-1.28-3.48-2.94,3c-2.93,2.88-2.93,3.07-.35,6.05,3.14,3.75,4.27,3.85,5.15.49ZM-27,288.11c0-.8-1-1.45-2.25-1.45s-1.85.65-1.36,1.45c1.14,1.86,3.59,1.86,3.59,0Zm8.32-.36A8.59,8.59,0,0,0-21.27,284c-1.84-1.63-1.59-1.81,1.81-1.28,3.07.47,4,0,4-2,0-2.66-2.75-4.28-7.26-4.28-3.47,0-5.24,2.85-2.72,4.42,1.06.65,1.5,1.64,1,2.19-1.5,1.5,1.58,6.39,4,6.39a1.53,1.53,0,0,0,1.72-1.77Zm5.42.36c-1.15-1.85-2.17-1.85-2.17,0a1.49,1.49,0,0,0,1.53,1.44c.87,0,1.12-.65.62-1.44Zm75.54-1.74c2.71-2.25,2.19-4-1.16-4-1.65,0-2.58.64-2.09,1.44,1.18,1.91-1.17,1.86-3.1-.06s-5.56,2.08-4.1,4.46C52.87,290,59.22,288.85,62.23,286.37Zm79.89,1.74c0-.8-1.14-1.44-2.54-1.42-2.16,0-2.21.22-.36,1.42,2.71,1.76,2.88,1.76,2.88,0Zm257.36,0c0-1.87-2.47-1.87-3.62,0-.49.79.11,1.44,1.36,1.44s2.24-.65,2.24-1.44ZM-1,285.23c0-3.42-1.22-3.61-6.32-1-4.46,2.32-4,3.09,2,3.55C-1.88,288.09-1,287.6-1,285.23Zm548.37,2a5.55,5.55,0,0,0-3.6,0c-1,.4-.19.73,1.79.73S548.31,287.55,547.33,287.19ZM43.47,284.38c4.34-4.35-3.12-11.38-8.51-8-2.57,1.61-3.28,1.61-4.27,0C29.85,275,29,274.88,28,276s-.36,2.13,2.46,3.56a30.75,30.75,0,0,1,6.6,4.6c3.12,3.11,3.49,3.13,6.4.21Zm402.3-.42c0-.7-1-1.66-2.18-2.12-2.2-.84-2.93.69-1.2,2.45,1.34,1.34,3.33,1.15,3.33-.37Zm30.31-.15c0-1.87-2.46-1.87-3.61,0-.49.8.11,1.45,1.36,1.45s2.25-.69,2.25-1.49Zm8.87-.1a25.54,25.54,0,0,1,5.86-2.13c3.64-.69,5.33-2.12,2.49-2.09-2.58,0-12.51,3.45-13.83,4.77-1.58,1.52,2.27,1.13,5.48-.59Zm19.26-3.92c-2.44-.56-7.89,2.25-7.89,4.09,0,.75,2.22.24,4.89-1.13s4.07-2.8,3-3ZM546.48,283c.31-.89-1.35-1.56-3.83-1.56-3.53,0-4,.38-2.7,1.95,1.85,2.18,5.73,1.93,6.53-.48Zm7.94,1.31a2.91,2.91,0,0,0-2.76.11c-.48.48.37.82,1.89.76,1.69-.15,2-.5.87-.94ZM-4.73,280.8c.82-.76-.49-1.28-3.25-1.28-3.24,0-4.63.68-4.63,2.27s.85,2,3.26,1.28a14.34,14.34,0,0,0,4.62-2.36Zm186.64-1.18a3.36,3.36,0,0,0-2.48-1.55c-1,0-.85.83.29,2.21,2,2.3,3.79,1.76,2.19-.75Zm256.51.73c2-1.07,4.38-1.64,5.42-1.24s1.88,0,1.88-.88c0-2-.53-2-7.43.08-3.07.92-5.58,2.22-5.58,2.88,0,1.6,1.55,1.37,5.71-.93Zm85.3,0c1.44-1.74,1.06-2-2.35-1.54-2.25.29-5.26.57-6.7.63s-2.21.75-1.72,1.55c1.35,2.07,8.8,1.63,10.77-.75Zm-243.77-3c-.47-1.22-1.16-2-1.55-1.55s-.26,1.39.27,2.24c1.43,2.19,2.26,1.75,1.28-.8Zm139.38.37c1,0,1.81-.56,1.81-1.15,0-1.31-14.56-4.59-15.65-3.52-.42.41.18.75,1.31.75s2.93,1.35,3.91,3c1.27,2,2.67,2.68,4.33,2a15.49,15.49,0,0,1,4.29-1.16Zm58.19-.31c1.48-1.77,1.38-2.16-.54-2.16a2.25,2.25,0,0,0-2.34,2.16c0,2.63.62,2.63,2.88-.11Zm74.47.72c-.5-.79-2.2-1.44-3.79-1.44s-2.49.65-2,1.44a5.06,5.06,0,0,0,3.78,1.45c1.59,0,2.45-.75,2-1.56Zm-349.16-1.44a1.45,1.45,0,1,0-1.46,1.44h0a1.45,1.45,0,0,0,1.45-1.45.28.28,0,0,1,0-.09ZM541,275.77c5.57-2.77,5.34-3.36-1-2.4-2.7.41-4.7,1.57-4.7,2.72,0,2.39,0,2.39,5.67-.42ZM5.37,274.24c.41-1.06,0-2-1-2-1.26,0-1.21-.37.16-1.24,2.5-1.59-.06-2.63-9.56-3.91-7.75-1-10.89,1-9.56,6.05.67,2.54,2,2.94,10,2.94,6.34-.06,9.42-.67,9.93-2Zm5.17.88c0-.84-.66-1.13-1.45-.64-1.86,1.15-1.86,2.17,0,2.17a1.51,1.51,0,0,0,1.45-1.56.22.22,0,0,1,0-.08Zm272.3-.71c-.46-1.22-1.16-2-1.53-1.53a2.11,2.11,0,0,0,.25,2.23c1.42,2.2,2.25,1.75,1.27-.8Zm230.82.8a1.45,1.45,0,1,0-2.89,0,1.43,1.43,0,0,0,1.44,1.44h0a1.44,1.44,0,0,0,1.46-1.43v0Zm-485-1.52c.52-.82.16-2.45-.81-3.61-1.52-1.84-1-1.84,4.22,0,3.28,1.17,5.95,1.49,5.95.73s1-1.39,2.28-1.39c1.62,0,1-1.3-2.14-4.42-3.52-3.53-5.7-4.45-10.59-4.51a27.48,27.48,0,0,1-10.08-2.08c-5.86-3-12.46-2.47-17.16,1.48-4.28,3.6-3.38,5.19,2.93,5.19,1.42,0,4.42,1.47,6.67,3.26a33.67,33.67,0,0,0,10,4.89c7.72,2.1,7.72,2.1,8.79.35Zm150.3-1.38c1,0,2.29-1.58,2.78-3.52,1.21-4.89-3.92-13.21-9.32-15.08-4.23-1.48-4.27-1.44-4.27,3.91s7.35,19.4,8.42,16.16a2.62,2.62,0,0,1,2.39-1.49Zm34.9-1.16c-.47-.48-.82.37-.76,1.9s.41,2,.88.88A2.92,2.92,0,0,0,213.82,271.15Zm108.51,0c-.46-2.18-.47-3.16,0-2.17,1.34,3.09,3.43,1.95,3.43-1.8,0-4.61-1.53-4.58-5.62.12-3.11,3.58-3.14,3.83-.62,5.74,3.57,2.71,3.73,2.61,2.8-1.92Zm114.37.28,4-2.07h-4.06c-2.35,0-3.69.6-3.17,1.44s-.13,1.44-1.36,1.44-2.26.69-2.26,1.54.66,1.12,1.45.63,3.23-1.89,5.42-3Zm72.65.12c0-2.26-3.05-1.73-4.38.75-1.49,2.79-1.38,2.94,1.37,1.44,1.65-.91,3-1.9,3-2.2Zm-527.73.68a1.44,1.44,0,0,0-1.45-1.44,1.44,1.44,0,0,0-1.45,1.44,1.45,1.45,0,0,0,1.45,1.45,1.46,1.46,0,0,0,1.44-1.48h0ZM531,271.51c1-1.21,1.16-2.17.35-2.17s-2.25,1-3.24,2.17-1.16,2.17-.36,2.17,2.25-1,3.24-2.2Zm22,1.18a2.9,2.9,0,0,0-2.77.12c-.48.48.37.82,1.9.75s2.06-.44.86-.9ZM279.45,270c0-1.24-.65-1.85-1.45-1.36-1.86,1.16-1.86,3.61,0,3.61C278.8,272.2,279.45,271.19,279.45,270Zm91.08-3.25c0-1.32-1-1.61-3.25-.92-4.21,1.3-4.2,1.28-3.16,4,.73,1.89,1.4,2,3.66.59,1.55-1,2.75-2.6,2.75-3.65Zm56,2.93c.35-1.05-.65-1.8-2.42-1.8s-3,.93-3,2.27c0,2.7,4.51,2.31,5.43-.43Zm34-.62c1.41-.74,2.22-1.89,1.79-2.59-.87-1.4-12.27,2.94-12.3,4.69,0,1.28,6.54,0,10.51-2.07Zm41.5,2.07a8,8,0,0,0-1.24-3c-1-1.58-1.38-1.53-2,.22-.46,1.18-.44,2.53,0,3,1.26,1.22,3.32,1.12,3.29-.18Zm-528.14-2.6c2.56-2.55,2.44-2.8-2.3-4.26-2.93-.89-3.31-.65-2.53,1.39a14.13,14.13,0,0,1,1,3.78c-.05,2,1.31,1.67,3.84-.87Zm228.86.88c0-2.51-2.54-2.94-4.35-.79-1.49,1.79-1.27,2.15,1.28,2.15,1.71,0,3.09-.57,3.09-1.32Zm319.25-2.26c4.13-2,7.5-4.25,7.5-5,0-1.74-3.85-.41-8.9,3.08-2.1,1.46-4.54,2.66-5.41,2.66a1.52,1.52,0,0,0-1.59,1.44c0,2-.16,2,8.42-2.13Zm5.66-.15c-1-1-5.38,1-5.38,2.53,0,.74,1.36.61,3-.27s2.75-1.87,2.43-2.22Zm-564.19.88c-1.15-1.86-2.17-1.86-2.17,0a1.49,1.49,0,0,0,1.53,1.44c.86,0,1.14-.61.66-1.4Zm345.24.58c1.3-1.3-.5-5-1.95-4.1a3.66,3.66,0,0,0-1.29,2.88c0,2.17,1.68,2.81,3.23,1.26Zm190.12-6.07c.33-1-.15-1.75-1.06-1.75s-1.19.77-.61,1.7c.7,1.13.26,1.4-1.32.79-2.34-.9-6.79,2.27-6.79,4.82,0,1.82,9-3.33,9.77-5.53Zm14.53,4.13c.36-1.08-.18-1.62-1.27-1.26a4.54,4.54,0,0,0-2.53,2.52c-.36,1.09.19,1.64,1.27,1.28a4.55,4.55,0,0,0,2.52-2.5Zm-422.22-1a53.48,53.48,0,0,1,6.35-2.53,47.7,47.7,0,0,0,6.84-3.74c3.91-2.4,5.87-4.68,5.87-6.73,0-3.14,5.93-6.29,11.74-6.29,3.41,0,4.69-2.28,3-5.31a4.73,4.73,0,0,1,.24-5c1.23-1.95,1.17-3-.21-4.42-1.16-1.16-2.2-1.31-2.86-.4a5.17,5.17,0,0,1-3.55,1.56c-1.39.06-4.06.22-5.91.36s-7,3.66-11.57,8c-8.37,8-9.85,10.1-6,8.62,1.19-.46,2.16-.24,2.16.46s-2,1.45-4.44,1.64-4.08-.26-3.63-1c.92-1.49-6-3.16-8.71-2.11-3.39,1.31-3.74,5.41-.66,7.91a8.93,8.93,0,0,1,3,6.84c0,5.23.93,5.46,8.36,2.16Zm251.88,1.8a15.79,15.79,0,0,1,.88-2.94c.58-1.49.08-2.29-1.45-2.29-1.36,0-2.31,1.21-2.31,2.94s.64,2.93,1.43,2.93,1.44-.24,1.44-.61Zm53.5-5.26c0-.58-1.47-1-3.26-1a43.06,43.06,0,0,1-8.31-1c-3.47-.75-4.4-.65-2.93.33,1.8,1.23,1.8,1.76,0,3.91s-1.76,2.39,1.15,1.47a8.43,8.43,0,0,1,5.77.41c1.86,1.05,3.25.81,5.09-.86,1.35-1.16,2.48-2.68,2.48-3.27Zm6.62-2.46c-1.24-1.24-1.95-.12-2.93,4.7l-.92,4.34,2.36-4.1c1.26-2.22,1.94-4.44,1.48-4.9Zm38.47,7.33a3,3,0,0,0-2.77.11c-.48.48.37.82,1.9.76s2-.37.86-.83Zm63.34-.46a1.45,1.45,0,1,0-1.44,1.45h0a1.45,1.45,0,0,0,1.44-1.41ZM75.88,263.45a2.42,2.42,0,0,0,2.61-2.17c0-2.47-1.66-2.82-3.7-.78-.87.87-2.18.88-3.54,0-1.83-1.17-1.77-1.37.37-1.39,1.4,0,2.53-.63,2.53-1.37,0-1.71-3.67-2.72-10.09-2.78-2.77,0-5.26-.73-5.54-1.57a2.16,2.16,0,0,0-1.73-1.54c-.66,0-.23,2,1,4.34s3.09,4.34,4.22,4.34,2.07.69,2.07,1.54,1.24,1.16,2.93.62,2.83-.39,2.72.26c-.51,2.94.27,3.81,1.87,2.2a7.09,7.09,0,0,1,4.34-1.62Zm260-.64c0-.29-1.3-.19-2.88.22s-2.94,1.36-2.94,2.08,1.3.64,2.94-.21,2.87-1.71,2.87-2Zm39.05,1.36c0-1.19-.64-2.17-1.41-2.17s-1,1-.57,2.17c1.06,2.86,2,2.86,2,.08ZM424,263c7.15-2.27,8.88-3.86,7.83-7.17q-.9-2.86.69-1.89c.88.55,1.61.35,1.61-.45a3.14,3.14,0,0,0-1.45-2.33c-2.19-1.36-1.73-3.62.72-3.62a2.17,2.17,0,0,0,2.16-2.17,2.34,2.34,0,0,1,2.49-2.17c2.17,0,2.21-.26.36-2.07-3.17-3.08-8.8-1.3-15.65,4.89-7.37,6.74-7.82,9-1.32,7.17,6.73-2,9.78-1.7,8.91.66-.48,1.24-3.81,2.25-8.87,2.67-6.16.5-8.73,1.44-10.76,3.91-1.46,1.8-2.65,3.91-2.65,4.62,0,1.49,7.89.44,15.9-2.11Zm49.16,1.89c1.64-1.07,1-1.41-2.53-1.43-2.59,0-4.7.64-4.7,1.43,0,1.92,4.37,1.92,7.22.08Zm63-2.56c-.48-.49-2,.29-3.38,1.73-2.39,2.5-2.35,2.53.88.88,1.85-.87,3-2.05,2.49-2.54Zm-334.81,1.37c0-2.16-4.67-7.58-6.12-7.1-.84.29-1.7,2.18-1.95,4.2-.34,3.19.19,3.71,3.82,3.81C199.48,264.69,201.37,264.32,201.37,263.71Zm-266.84-3.22c-1-1.64-5-1.7-5-.09,0,2,1.63,2.93,3.74,2.15C-65.58,262.13-65,261.2-65.47,260.49ZM-13.08,262c1.08-1.06,1.87-1.09,2.5-.06,1.12,1.81,10.14-3.19,12.93-7.18,1-1.5,2.33-2.3,2.85-1.78s3.72,1.4,7.1,1.95A53.18,53.18,0,0,1,21,257c2.08.88,2.53.31,2.53-3.18,0-5.31-1.1-6.47-4.44-4.69-1.7.92-2.94.9-3.51-.05A3.38,3.38,0,0,0,13,247.65c-1.29,0-1.28.31,0,1.15,1,.63-2.93,1.21-8.67,1.3s-11.18-.43-12.06-1.16-3.64-.91-6.13-.42c-4,.81-4.42,1.31-3.51,4.7a28.94,28.94,0,0,1,.85,7C-16.65,263.83-15.5,264.4-13.08,262Zm67.86-2.07c-1.29-1.29-2.34-1.77-2.34-1.08,0,1.64,3.23,4.89,4.05,4.05.36-.35-.4-1.68-1.69-3ZM457.25,258c0-2.52-6.06-1.61-6.94,1.05-.47,1.44.2,1.8,2.31,1.25,2.28-.6,2.81-.22,2.23,1.59-.64,2-.54,2.07.81.19a8.86,8.86,0,0,0,1.61-4.08Zm50.62,1.91c0-1.34-1.37-2.16-3.62-2.16-3.51,0-4.61,1.41-2.65,3.37s6.29,1,6.29-1.21ZM271.1,256.18c.5-3.4-.06-4.89-2.37-6.33-4.27-2.66-11-4-11-2.25a1.69,1.69,0,0,0,1.81,1.49c1.37,0,1.35.32-.1,1.24s-.48,2.35,3.62,5.71c3,2.47,5.93,4.53,6.43,4.54S270.74,258.63,271.1,256.18Zm61.13,3c.48-.81,2.27-1.45,4-1.45,2.23,0,2.66-.44,1.53-1.58-2.31-2.29-8.3-1-8.86,2-.52,2.65,1.86,3.46,3.35,1.07Zm146,.05c-2.34-1-2.48-1.36-.73-2.08s5-1.16,18.08-2.28c2.93-.24,2.93-.24,0-1.48-4.42-1.9-15.18-1.67-17.09.37-5.68,6-5.87,6.84-1.53,6.76,3.59-.09,3.77-.27,1.27-1.29Zm36.18-.05c-1.15-1.88-3.62-1.88-3.62,0,0,.79,1,1.43,2.26,1.43s1.81-.64,1.32-1.43Zm41.89.05a2.56,2.56,0,0,1,3-.56c1.16.45,2.12.1,2.12-.78a1.9,1.9,0,0,1,2.08-1.61,3.78,3.78,0,0,0,2.93-1.39c.51-.83-2.38-1.36-7.19-1.3-6.73.08-7.83.43-6.39,2.11s1.17,2-.67,2c-1.29,0-2.34.64-2.34,1.45,0,1.83,5.31,1.89,6.43.05Zm-252.25-1.59c0-.84-.66-1.12-1.45-.64-1.85,1.15-1.85,2.18,0,2.18a1.51,1.51,0,0,0,1.41-1.54ZM397.12,256c1.95-3.07.44-4.75-2.94-3.35-2.42,1-2.4,1.15.3,2.34,1.95.88,1,1-3.25.45-6.68-.92-8.07.17-2.93,2.27,4.29,1.77,6.9,1.26,8.78-1.71ZM164.7,253.8c-.48-.48-.82.37-.76,1.89.06,1.7.41,2,.87.88a2.93,2.93,0,0,0-.15-2.77Zm77.91,2.52c.49-.78-.48-2.93-2.15-4.68-2.39-2.57-3.28-2.84-4.24-1.3-1.83,2.93-.11,7.41,2.87,7.41a4.6,4.6,0,0,0,3.48-1.43Zm112.84-.12c.53-.85.66-1.84.3-2.2-1-1-5.42,1-5.42,2.46,0,1.81,3.93,1.61,5.08-.26Zm18.72.08a1.66,1.66,0,0,0-2.25-.64c-2,1.24-1.63,2.11.91,2.11,1.2,0,1.8-.67,1.3-1.47Zm97-5.22c-.38-1,.41-2.09,1.75-2.46,2.27-.59,2.27-.65,0-.81a7.06,7.06,0,0,0-4.59,2,4.69,4.69,0,0,1-4.44,1.29c-2.94-1.14-2.94.68.12,4,2.26,2.49,2.57,2.51,5.12.2,1.48-1.35,2.39-3.22,2-4.22ZM35.41,252c.66-4.43-.59-5.24-5.25-3.45-2.3.88-3.11,5-1.32,6.84C31.36,257.85,34.84,256.1,35.41,252Zm8.37,2.52c0-1-1.3-2.64-2.93-3.63-2.6-1.62-2.93-1.44-2.93,1.82,0,2.66.77,3.63,2.93,3.63,1.63,0,2.93-.84,2.93-1.84Zm236.06-9.65a34.07,34.07,0,0,0-1-8.36c-.87-2.74-1.47-2.94-5.25-1.62-2.35.82-4.27,1.8-4.27,2.17,0,1.16,4.15,4.89,5.37,4.89.62,0,1.22,2.56,1.32,5.74.24,8,.4,8.33,2.23,5.19a20.14,20.14,0,0,0,1.58-8Zm264.2,8.5c0-.85-.66-1.14-1.45-.65-1.86,1.15-1.86,2.17,0,2.17a1.49,1.49,0,0,0,1.45-1.54h0Zm-426.52-3.64c0-.39-1.3,0-2.94.83s-2.88,1.87-2.88,2.27,1.3,0,2.88-.83,2.94-1.89,2.94-2.29Zm109.4,1.84a3,3,0,0,0,3.49-1.17c2.18-3.44,1.49-4-3.22-2.68-2.5.72-5.05,1-5.68.6a1.51,1.51,0,0,0-1.95.68c-.47.76.3,2,1.71,2.82s2.76.87,3,.18,1.42-.92,2.64-.45Zm111.81-.29a2.14,2.14,0,0,0-2.08-2.17c-2.8,0-4.19,2.46-1.91,3.38,3.16,1.25,4,1,4-1.23Zm11.56-.92a3.48,3.48,0,0,1,2.53-3.14c2-.52,1.88-.7-.56-.84-1.71-.08-3.48.82-3.92,2a3.5,3.5,0,0,1-2.93,2.17,3.91,3.91,0,0,0-3,1.48c-.56.9.81,1.34,3.53,1.13,3.05-.25,4.39-1.1,4.39-2.83Zm24.45.84c.35-.36-1.07-.64-3.14-.64s-4.15.61-4.61,1.35c-.82,1.28,6.38.61,7.73-.73Zm9.65-2.28,2.35-4.54-4.5,3.2c-2.47,1.76-4.12,3.8-3.67,4.54q2.26,3.65,5.8-3.22Zm9.37,2.33c2.45-1.28,4.27-1.58,4.27-.73,0,2.84,2.28,1.46,4.89-2.93,1.44-2.45,2.28-4.79,1.87-5.2-1.14-1.13-5.15,1.46-4.89,3.12.14.81-2.34,1.67-5.51,2-5.25.43-7.89,2.07-7.95,5,0,1.62,2.65,1.21,7.34-1.19Zm-422.84-3.16c-.48-.48-.82.37-.76,1.89.07,1.69.41,2,.87.87A2.91,2.91,0,0,0-29.08,248.07Zm105.45,2.4c.52-.85.66-1.84.3-2.2-1-1-5.42,1-5.42,2.45,0,1.76,4,1.57,5.12-.3ZM204,249.8c-4.29-5.1-5.87-6.57-6.44-6-.78.79,5.65,8.15,7.15,8.19.64,0,.34-1-.71-2.24Zm106.49-4.7c.9-4.09,2-5.94,3.22-5.47,3.06,1.17,1.53-5.55-1.55-6.8-3.45-1.41-4.68-.3-2.54,2.29,1.55,1.86.91,3.91-1.24,3.91-.53,0-1.71-1.62-2.61-3.62-2.73-6-4.48-4.16-3.85,4,.32,4.18.6,8.8.63,10.22,0,1.89,1,2.51,3.32,2.17,2.52-.44,3.56-1.92,4.62-6.73Zm49.29,4.58c3.76-2.47,4.69-4.89,1.87-4.89-2,0-7,4.27-7,6s1.09,1.46,5.12-1.17Zm140.91-2c0-.55-2-.73-4.32-.39s-4,1.13-3.65,1.73c.85,1.29,8,.1,8-1.36ZM1.33,245.07c-1-1.6-8.15-.55-8.15,1.2,0,1.56,6.16,2.53,7.75,1.21a2,2,0,0,0,.4-2.43Zm54.05,2.64a3.1,3.1,0,0,0-1.44-2.26,3.92,3.92,0,0,1-1.28-3.33c.15-2.19.24-2.18.84.1.36,1.41,1.26,2.18,2,1.72,2.13-1.31,1.56-8.8-.83-10.76a7.66,7.66,0,0,1-2.16-5.24c0-1.89-.82-3.42-1.81-3.42-4,0-8.31,1.86-8.31,3.5,0,1-2,3.16-4.31,4.89-3.84,2.84-4.12,3.57-2.66,6.77,2.18,4.8,4.12,4.59,3.51-.37-.27-2.19-.22-2.93.11-1.59,1,3.66,6.51,8.16,7.3,5.87.43-1.21,1.62-.6,3.51,1.81,2.93,3.68,5.54,4.78,5.54,2.28Zm218.3.28c0-.6-1.61-2.59-3.56-4.44-2.73-2.59-4.13-3-6.12-1.91-2.33,1.3-2.21,1.58,1.25,2.93,2.11.81,4.26,2.16,4.78,3,1.05,1.72,3.65,2,3.61.42Zm264.61-1.18c0-1.23-.66-1.83-1.47-1.34a1.66,1.66,0,0,0-.64,2.25h0c1.21,2,2.07,1.64,2.07-.91ZM80.36,246c2.4.12,4.35-.68,4.89-1.95s1.51-2.2,2.31-2.2.66,1-.38,2.24c-1.62,2-1.35,2.15,2.11,1.52,5.31-1,8.06-3.43,7.12-6.4-.66-2.06-.55-2.1.75-.26s1.81,1.77,3.64-.72,1.82-3,0-4a3.89,3.89,0,0,1-2-2.61c0-.81.75-1,1.67-.43,1.16.71,1.42,0,.86-2.09-.45-1.71-.18-3.11.58-3.11s1-.65.5-1.46-1.81-1-3.42-.09a4.87,4.87,0,0,1-4.53.09c-2.25-1.38-4.79-.45-3.67,1.36.39.64-.46,2.22-2,3.53-2.36,2.15-3,2.16-7,.16A23.5,23.5,0,0,1,75.36,225c-1.78-2.16-1.49-2.28,2.94-1.41,2.93.57,5.68.32,6.84-.62s4.21-1.66,7-1.74c6.15-.18,3.54-2.44-2.84-2.46-8.8,0-16-1-21.52-2.79-3.5-1.19-5.93-1.36-6.5-.49a14.76,14.76,0,0,1-4.32,3.2c-2.41,1.27-2.94,2.25-1.87,3.33s2.19,1,3.77-.31,2.23-1.42,2.23-.11,1.39,1.43,4.34.78,4.34-.39,4.34.77-1.73,1.51-4.7,1.17l-4.7-.55v23.8l7.95-.84a102.29,102.29,0,0,1,12-.68Zm104-3c-1.35-1.35-2.15-1.34-3.53.06s-1.36,2.06.34,3.12c2.86,1.79,5.48-.83,3.15-3.18ZM447,245.32c.73.45,1.65-.79,2-2.77.45-2.32,0-3.6-1.15-3.6-4.11,0-6.43,2-6.43,5.39,0,3,.35,3.34,2.11,1.89,1.11-1,2.67-1.37,3.41-.91Zm44,0c2.56-.34,6.77-.73,9.36-.84,4.89-.24,5.95-2.17,2.93-5.46-1.47-1.59-1.32-1.78.84-1a16.34,16.34,0,0,0,4.07,1c.78,0,1.05.59.6,1.31s.52,1,2.13.54c3.6-1,7-6.49,4.49-7.33a1.26,1.26,0,0,1-1-1.48,1.49,1.49,0,0,1,.15-.4c1.31-2.11,3.54-1.52,3.54.93,0,1.25.65,1.86,1.44,1.37a3.72,3.72,0,0,0,1.45-2.87c0-2.84-17.11-2.09-19.34.85-.9,1.18-4.07,3.63-7.06,5.46s-5,4-4.47,4.89.32,1.15-.44.68-3.32.45-5.65,2.05c-3.53,2.43-3.69,2.76-1,2a69.38,69.38,0,0,1,7.95-1.57Zm-143.77-3.91c.66-3.47-1.6-3-5.46,1.11l-3.32,3.53,4.15-1.1c2.22-.65,4.3-2.24,4.56-3.57Zm121,2.19c-.44-.45-1.6,0-2.59,1-1.42,1.43-1.25,1.6.81.82,1.43-.55,2.23-1.35,1.78-1.8ZM8.55,239.42c-2.48-7.17-5.23-7.9-5.23-1.39,0,4.79.84,5.69,6.08,6.56.52.07.14-2.26-.87-5.2Zm8.9,2.46c-2-3.28-5.45-3.92-5.45-1,0,2.65,1.44,3.85,4.59,3.85,2.27,0,2.39-.41.83-2.9Zm15.15,2a5.58,5.58,0,0,0-3.61,0c-1,.4-.18.73,1.81.73s2.77-.41,1.78-.79Zm177-4.06c-1.88-1.87-2-3-.68-5.87s1.16-4.62-.77-8.67a31.33,31.33,0,0,1-2.44-11.17c0-8.09-1.46-10.12-6.27-8.91-3.17.79-3.7.55-2.94-1.36a3.68,3.68,0,0,1,2.55-2.43c.91-.06-.63-1-3.42-2-5.76-2.13-13.58-1.44-15.95,1.41-1.17,1.42-1,2.93.72,6l2.32,4.07-.89-4.69c-.69-3.7-.39-4.71,1.4-4.71,1.32,0,2.29,1.23,2.29,2.94s.51,2.93,1.13,2.93,1.14,1.25,1.14,2.79-.57,2.42-1.27,1.95-1.05.43-.78,1.91,2.66,3.79,5.31,5.11a46.84,46.84,0,0,1,7.22,4.42,31.84,31.84,0,0,0,6.5,3.75c3.3,1.41,3.91,2.35,3.08,5a18.31,18.31,0,0,1-2.45,5c-1,1.26-.88,1.81.42,1.81,1,0,1.44.43.91,1s-.19,1.85.72,2.93c1.08,1.31,2.15,1.51,3.07.59s.54-2.38-1-3.89Zm23.24,1.75c3.12-2.44,1.95-3.8-2.89-3.48-5.64.38-8.31,1.87-8.31,4.64,0,1.52,1.18,1.82,4.69,1.15,2.54-.55,5.47-1.58,6.46-2.37Zm243.84,1.61c-.63-1-.39-1.28.6-.68,2.11,1.31,13.31-4.41,13.16-6.73-.08-1.19-.33-1.25-.78-.14s-3,1.37-6.75,1c-7-.75-12.17,2.07-10.76,5.87a3.81,3.81,0,0,0,3.22,2.38c1.37-.07,1.88-.74,1.26-1.73Zm-480.3-2.94c-1-.93-2.17-1.2-2.76-.61s-.13,1.64,1,2.35c2.7,1.58,3.91.37,1.73-1.83Zm367.74,1c2.76-2.22,2.76-2.23-.09-.92-1.59.73-3.91,1.69-5.07,2.13-1.86.7-1.85.83.09.92a9.4,9.4,0,0,0,5-2.26Zm104-3.24c1.58-1,2.56-2,2.17-2-7.55-1.31-8-1.2-10.32,2.93l-2.42,4.25,3.91-1.66A51.92,51.92,0,0,0,468.11,237.93ZM26.4,239.73a3.64,3.64,0,0,0,.69-3.83c-.77-1.24-1.62-1-3,1-3.46,4.65-1.35,7.27,2.3,2.85Zm166.8-1c-1.68-1.7-3.91-2.77-5-2.42s-.38,1.52,2.38,3c5.77,3.17,6.25,3.06,2.61-.57ZM355,240c-.19-.59-.71-.9-1.13-.71s-1.38-.6-2.11-1.79c-1-1.67-1.28-1.41-1.08,1.14.16,2.09,1.05,3.12,2.47,2.84,1.19-.2,2-.87,1.82-1.45Zm19.24-.3c2.66-2,2.56-2.13-1.85-2.17-3.55,0-4.45.47-3.81,2.13,1,2.73,2.09,2.74,5.62.07Zm83.06-1c0-2.08-2.52-1.48-3.39.8-.54,1.41-.12,1.83,1.29,1.29,1.16-.36,2.07-1.3,2.07-2Zm-281.94-1.27c0-1.86-1.29-3.18-3.72-3.79-2.65-.67-3.27-1.38-2.17-2.48,2-2.05,2-6.33-.11-7.61-1.13-.72-1.43.15-.92,2.79.4,2.12.15,3.84-.57,3.84-3.72,0,2.43,8.64,7.13,10,.16.14.33-1.1.33-2.68ZM331.5,235.5c0-.65-.62-.77-1.42-.29a4.27,4.27,0,0,0-1.42,3.35c0,2.1.21,2.14,1.42.27a8.67,8.67,0,0,0,1.39-3.21Zm204.1,3.3c2.3-1.22,2.72-1.18,1.88.19-.71,1.13-.41,1.55.81,1.14,2.93-1,3.24-3.6.58-4.62-1.35-.52-3.91.34-6,2C528.93,240.59,530.71,241.44,535.6,238.8Zm15.65.27a13.29,13.29,0,0,1,.87-3.62c1.07-2.8-.86-2.93-4.43-.33-1.47,1.07-2.2,2.7-1.65,3.62C547.33,240.71,551.25,241,551.25,239.07ZM20.07,235.46c-.55-2.16-.2-3.78,1-4.23s0-.78-2.17-.84c-3.27-.09-4,.5-4,3.4,0,2.12,1,3.76,2.54,4.16s2.75.74,3,.83.1-1.4-.38-3.32Zm247.07,2c.5-.79.24-1.44-.55-1.44a3.17,3.17,0,0,0-2.34,1.44c-.5.8-.24,1.45.55,1.45a3.19,3.19,0,0,0,2.36-1.45Zm96.18-.75c2.7-3.26,1.13-3.64-2.1-.51-1.52,1.5-2.09,2.71-1.26,2.71s2.37-1,3.38-2.2ZM-1.49,234.9c1.24-.79.82-1.69-1.45-3.1-2.85-1.78-3-1.75-1.32.28,1.53,1.83,1.53,2.39,0,3-1,.41-1.22.79-.43.84a6.29,6.29,0,0,0,3.23-1Zm14.88-2.75c0-2.93-.41-3.48-1.64-2.27A4,4,0,0,0,11,233.8c1.37,3.44,2.44,2.71,2.44-1.65ZM223,231.27c0-.64-.63-.76-1.42-.27a4.23,4.23,0,0,0-1.43,3.33c0,2.12.22,2.16,1.43.28a8.9,8.9,0,0,0,1.45-3.34Zm216.52,3.92c1.78-.48,2.93-1.45,2.44-2.16s.55-1.28,2.19-1.28c3.56,0,3.61-.36.74-5.87-1.34-2.61-2.88-3.91-3.91-3.27-1.26.77-1.24,1.18.06,1.61,2.76.92,2,3.23-1.05,3.23-1.65,0-3.66,1.77-4.94,4.34-2.3,4.61-1.69,5.08,4.46,3.43Zm9.05-.55c0-.79-1-1.44-2.17-1.44s-2.17.65-2.17,1.44,1,1.45,2.17,1.45,2.2-.68,2.2-1.48Zm10.76-3.91c.39-1,.08-1.84-.69-1.84a1.52,1.52,0,0,1-1.4-1.63c0-1.08.75-1,2.28.28,1.88,1.56,2.5,1.53,3.58-.19,1-1.56.42-2.19-2.28-2.53-2-.26-3.58-1.39-3.58-2.53s-1.32-2-3.26-1.91c-2.44.13-2.62.33-.72.83,2.62.68,3.22,2.16,1.58,3.81-.53.52-1.84.22-2.93-.69s-2.45-1.16-3-.59.21,2,1.76,3.1,2,2,1.08,2c-2.3,0-2.22,5.38.08,6.16s6.58-1.83,7.56-4.38Zm-102.58,2.5c-.49-.8.44-1.45,2.09-1.45,3.85,0,3.84-2.42,0-3.65-3.45-1.1-3.53-1-4.89,3.29-.76,2.45-.41,3.25,1.36,3.25,1.3-.06,2-.71,1.48-1.5Zm10.25-4c-1.55-1.56-2.38.62-1.29,3.4,1,2.6,1.1,2.6,1.61.09.33-1.52.18-3.08-.28-3.55Zm7.1,4c-.49-.8.12-1.45,1.36-1.45s2.25.65,2.25,1.45a1.46,1.46,0,0,0,1.45,1.44c.79,0,1.45-.9,1.45-2s1.62-3.07,3.61-4.37c4.57-3,4.61-4.83.11-4.83-2.52,0-3.75,1-4.4,3.56-.54,2.18-1.64,3.27-2.82,2.82-2-.75-5.18,1.53-5.18,3.66a1.4,1.4,0,0,0,1.53,1.16c.89-.1,1.17-.75.68-1.54Zm50.61-1.45c1.44-1.59,2.14-2.93,1.57-2.93-2.06,0-6.64,3-6.64,4.39,0,2.25,2.3,1.58,5.11-1.52ZM201.6,230c-1-1-1.71-1.12-1.71-.21,0,1.95,1.71,3.63,2.68,2.67.5-.47,0-1.58-.93-2.52Zm267.74,1c-.45-1.2-1.42-1.8-2.15-1.35-1.51,1-.3,3.51,1.67,3.51.75-.06,1-1,.52-2.22Zm9.86,1.17a2.91,2.91,0,0,0-2.76.11c-.49.48.37.82,1.89.76,1.73-.13,2.07-.47.91-.93Zm-366.76-2a1.66,1.66,0,0,0-2.25-.65c-2,1.24-1.63,2.11.9,2.11,1.24,0,1.85-.69,1.35-1.49Zm80.45-1.12a3.68,3.68,0,0,0-3.42.89c-1.07,1.08-.51,1.26,1.9.64,1.92-.55,2.61-1.22,1.52-1.56Zm53.31,1.14a1.5,1.5,0,0,0-1.54-1.45c-.84,0-1.12.65-.63,1.45,1.14,1.81,2.17,1.81,2.17,0Zm28.91-.82c0-.34-.65-.63-1.44-.63a1.49,1.49,0,0,0-1.45,1.53c0,.84.65,1.13,1.45.64s1.44-1.21,1.44-1.55Zm-218.32-.63a1.5,1.5,0,0,0-1.52-1.45c-.86,0-1.14.66-.65,1.45,1.14,1.83,2.17,1.83,2.17,0Zm28.92-.73c-1-1.19-2.39-2.16-3.13-2.16-1.66,0,2,4.21,3.67,4.28.69,0,.43-.95-.55-2.15Zm78.07-.8c0-.75-1-1.36-2.26-1.36-1.68,0-2-.85-1.29-3.25.91-3,.8-3.1-1.49-.9s-2.31,2.53.11,5.35,4.93,2.94,4.93.13Zm65.59.8c-.49-1.27,0-2.17,1.13-2.17s-.17-1.3-2.77-2.88-5.48-4.54-6.4-6.57-2.5-3.35-3.58-2.93-2-.29-2-1.75c0-3.22-2.43-7-3.66-5.8a2.43,2.43,0,0,0,.16,2.73,17,17,0,0,1,1.42,5.87c.61,7.82,3.58,12.71,7.7,12.78a13.28,13.28,0,0,1,6,1.42c2.88,1.85,3,1.82,2-.73Zm181.65,0c2.33-2.81.45-2.81-2.38,0-1.19,1.2-1.55,2.18-.79,2.18s2.18-1,3.17-2.21Zm85.3.73c0-1.87-2.45-1.87-3.61,0-.5.79.12,1.45,1.36,1.45s2.25-.69,2.25-1.48ZM19.11,225.77c-2-3.79-5.46-5-7.59-2.7-1.36,1.46-1.18,1.66.89.93,1.54-.55,2.25-.34,1.72.51-1.3,2.1.11,3.65,3.52,3.91C20.22,228.62,20.43,228.23,19.11,225.77Zm512.36,1.76c1.44-.1,2.21-.83,1.72-1.63-1.19-2-10.83-1.15-10.84.88,0,.89,1.46,1.46,3.25,1.28S530,227.67,531.47,227.53Zm-341-1.47c1-1.65-9.65-10.24-12.71-10.24-2.79,0-1.65,3.75,1.52,5,1.58.61,2,.2,1.35-1.41-.5-1.3-.26-1.88.56-1.38s1.43,2.19,1.43,3.78.65,2.49,1.44,2,1.45.12,1.45,1.36C185.46,227.53,189.11,228.24,190.45,226.06Zm54.9-1.05c.51-1.31-.1-3.91-1.34-5.81-1.86-2.84-2.75-3.16-5.14-1.88-2.85,1.52-2.85,1.59.41,5.72C243.17,227.92,244.14,228.24,245.35,225Zm124.1,1.41a5.58,5.58,0,0,0-3.61,0c-1,.4-.19.74,1.8.74S370.45,226.82,369.45,226.42Zm-107.35-4.1c3.65-3.91,1.72-5.13-2.06-1.34-2,2-3.08,5-1.8,5A23.21,23.21,0,0,0,262.1,222.32Zm7.23.45c0-1.9-3.29-.71-4,1.45-.35,1.06.31,1.38,1.72.84,1.26-.47,2.29-1.51,2.29-2.29ZM482.14,225a2.92,2.92,0,0,0-2.78.1c-.48.48.37.82,1.9.77,1.69-.07,2-.42.88-.87ZM48.12,221c0-2.23-6-6.67-9.1-6.67-1.33,0-1.78,1.3-1.38,4,.49,3.37,1.35,4,5.53,4.35,3.41.24,4.95-.26,4.95-1.65Zm62.17.47c0-.84-.61-1.15-1.35-.69a1.67,1.67,0,0,1-2.25-.64,3.31,3.31,0,0,0-2.63-1.43c-1,0-.46,1,1.09,2.18,3.3,2.5,5.14,2.69,5.14.58Zm270.07-.2c2.94-2.94,2-4.06-2.24-2.29-6,2.54-7.14,4-3.11,4C377,223.05,379.42,222.27,380.36,221.31Zm8.9-.47c.84.52,1.52-.08,1.52-1.32,0-3.39-4-2.71-6,1-1.55,2.93-1.48,3.06.62,1.32C386.7,220.78,388.43,220.33,389.26,220.84Zm79.59-1.51c0-1.72-.51-1.77-2.83-.32-2,1.21-2.31,2.09-1.15,2.81C467,223.15,468.85,222,468.85,219.33Zm-445.31.82a1.45,1.45,0,1,0-1.45,1.45,1.44,1.44,0,0,0,1.45-1.45Zm376.87-.62c-.44-1.15-.2-2.28.52-2.54s.78-1.31,0-2.6c-1.12-1.81-1.85-1.59-4.59,1.36-2.28,2.45-2.56,3.23-.91,2.6a2.29,2.29,0,0,1,3.07,1l.09.2c.44,1.13,1.21,2.07,1.72,2.07s.53-.92.1-2.07Zm29.4-1.16c0-.84-.92-.7-2.17.34-2.76,2.29-2.76,3,0,1.95,1.2-.44,2.17-1.48,2.17-2.29Zm66.51-1.1c1.29-3.1,2.78-4.34,5.24-4.34,3.56,0,4.74-2.22,1.71-3.23-2.52-.84-8.37,2.2-8.38,4.36,0,1-1.15,2.28-2.54,2.81a15,15,0,0,0-4.44,2.84c-1.59,1.56-1.17,1.89,2.35,1.89s4.64-.9,6.06-4.33Zm-18.8-.33c0-.79-1-1-2.28-.55a13.78,13.78,0,0,1-3.7.88c-.78,0-1.05.58-.6,1.3,1,1.66,6.58.28,6.58-1.63Zm-459.76,1.2c0-.31-1-1-2.25-1.43s-1.87-.25-1.36.57C15,218.66,17.76,219.31,17.76,218.14Zm15.9-.74c0-.71-2-2-4.34-2.81s-4.33-2.2-4.33-3S24,210,22.81,210s-2.17-.57-2.17-1.27-1.45-1.62-3.24-2-7-2.16-11.54-3.91-10.1-2.88-12.3-2.58c-3.52.48-3.18.77,2.87,2.44,5,1.37,6.84,2.62,6.84,4.51a3.67,3.67,0,0,0,2.54,3.33c1.39.39,7.41,1.9,13.38,3.35s11,3.14,11.32,3.73C31.21,219.16,33.66,219,33.66,217.4Zm84.5,0c.45-.72-1.73-1.75-4.84-2.27s-6.84-1.86-8.32-2.94a10.69,10.69,0,0,0-5.17-2.06c-1.36,0-3.57-1.7-4.89-3.74-3.45-5.26-8.8-7.38-16.43-6.48-4.49.54-6.63,1.51-7,3.17-.38,2.06.32,2.23,5,1.17,6.19-1.4,6.61-1.2,7.11,3.31.2,1.79.42,3.73.49,4.33S86.4,213,89,213s8.61,1.26,13.38,2.76c9.75,3.05,14.64,3.57,15.8,1.64Zm133.81-3c-2.69-1.66-3.54-.82-2.33,2.33.74,2,1.33,2.09,2.7.72S253.66,215.41,252,214.39Zm18.38-.74c-1.61-5.27-3.6-6.28-6.56-3.33-2.55,2.56-2.11,6.63.8,7.39,6.78,1.77,7.45,1.3,5.8-4.06Zm36.84,4.1a2.93,2.93,0,0,0-2.77.11c-.48.48.37.83,1.9.77C308,218.53,308.34,218.19,307.19,217.75ZM416,216.47c2.34-2.34,3-5,1.31-5-1.46,0-6.26,4.6-6.26,6,0,1.92,2.49,1.4,5-1.07Zm9.22.53c1.95-1.95,2.34-6.94.47-6.94-1.55,0-3.76,2.73-5,6.15-1.05,2.91,1.85,3.41,4.5.76Zm35.21.75a2.93,2.93,0,0,0-2.77.11c-.48.48.37.83,1.9.77,1.74-.1,2.07-.44.92-.88Zm27.38-1.85c1.88-1.57,2.64-2.87,1.71-2.94s-2.68.93-3.91,2.13-2.54,2.17-3,2.17c-1.6,0-.8-2.71,1.45-5,2-2,2-2.28.16-2.28-2.16,0-4.31,5.36-3,7.48,1.25,1.88,3,1.45,6.66-1.63Zm-430.44-.8c.62-1.63-.17-2.14-3.1-2-2.49.11-3,.41-1.39.83,1.41.37,2.18,1.27,1.72,2s-.2,1.34.56,1.34S56.86,216.29,57.34,215.1Zm15.58-.78c-3.14-2.61-7.43-3.84-7.43-2.12,0,.66,8.43,4.74,10.12,4.89.38,0-.83-1.2-2.71-2.77Zm163-.84c-2.11-2.53-3.45-1.53-2.22,1.65.49,1.27,1.57,1.89,2.41,1.37,1-.64,1-1.59-.21-3Zm132.2,1.69c.54-1.4.11-1.83-1.29-1.3-1.16.45-2.1,1.39-2.1,2.11,0,2.07,2.49,1.47,3.37-.81Zm-285.32-.63c0-.71-1.3-1.61-2.94-2-3.13-.82-4,1.17-1.07,2.36s4,1.06,4-.32Zm-34.7-1.61a1.45,1.45,0,1,0-1.45,1.44,1.45,1.45,0,0,0,1.45-1.44Zm70.66-1c-2.94-3.49-9.62-5.94-14-5.11-3.37.65-2.8,1.13,4.82,4,10.45,4,11.72,4.19,9.16,1.1Zm58.74,1c-1.14-1.85-2.17-1.85-2.17,0a1.49,1.49,0,0,0,1.53,1.44c.83,0,1.11-.65.62-1.44Zm268.2-.82c0-.34-.65-.63-1.45-.63a1.49,1.49,0,0,0-1.44,1.53c0,.84.65,1.13,1.44.64s1.43-1.18,1.43-1.54Zm32.6.22c2.57-1.88,2.33-2-2.93-1.66-3.14.2-6,1.12-6.26,2-.77,2.36,5.81,2.1,9.17-.38Zm-236.48-2c0-3.68-1.69-5.36-5.77-5.87-2.85-.33-3.15-.1-1.44,1.07,1.95,1.32,1.95,1.5,0,1.55-1.46,0-1,1,1.44,2.87,4.47,3.56,5.77,3.64,5.75.4ZM522.37,210a1.45,1.45,0,1,0-1.45,1.45h0a1.45,1.45,0,0,0,1.43-1.43Zm-441-2.14c0-1.21-1.28-2.17-2.89-2.17-3.2,0-3.91,2.24-1.08,3.37C80.54,210.34,81.37,210.09,81.37,207.87Zm41.93.77c0-.77-1.46-2.16-3.25-3.1-3.24-1.7-3.24-1.69-.5,1.39,3.06,3.45,3.75,3.77,3.75,1.71Zm30.37-.86c0-.35-.66-.63-1.45-.63a1.49,1.49,0,0,0-1.45,1.52c0,.84.66,1.14,1.45.64S153.67,208.13,153.67,207.78Zm161.93-.09c0-.3-1.3-.54-2.94-.54s-2.93.58-2.93,1.31,1.3,1,2.93.54S315.6,208,315.6,207.69ZM367,206c-.48-.49-1.95.29-3.38,1.73-2.39,2.5-2.35,2.53.88.88,1.89-1,3-2.13,2.5-2.63ZM1.86,207.25c0-1.34-7.18-3.44-9.56-2.78a11.39,11.39,0,0,1-4.62-.78c-1.95-.66-4.08-.49-5.19.43s-2.3,1.13-2.82.6-1-.12-1,.89a1.21,1.21,0,0,0,1.12,1.31,1.14,1.14,0,0,0,.68-.15c1-.37,4.74-.19,8.32.39,9.58,1.57,13,1.59,13,.09Zm379.21-1.44c.51-2,.13-2.56-1.28-2a3.26,3.26,0,0,0-2,2.79C377.76,209.58,380.21,209,381.07,205.81Zm44.7.25a19.4,19.4,0,0,0,3.07-5,2.3,2.3,0,0,1,2.72-1.77,2.91,2.91,0,0,1,.39.12c1.56.6,2.23,0,2.23-2.19,0-1.68-.64-3.05-1.41-3.05s-1.08.83-.69,1.85c.85,2.22-6,3.16-7.32,1s-3.18-1.71-4.22,1a3.14,3.14,0,0,0,.93,3.62c1.19.76,1.34,1.58.41,2.28-2.24,1.68-2.38,4.7-.22,4.7,1,0,2.9-1.13,4.09-2.52Zm-177.38-.36c-1.16-1.86-2.17-1.86-2.17,0a1.49,1.49,0,0,0,1.52,1.45c.82,0,1.12-.66.63-1.45Zm106.27-.09c0-.84-.65-1.13-1.45-.64-1.84,1.15-1.84,2.18,0,2.18A1.52,1.52,0,0,0,354.66,205.61Zm60.64-1.26a16.31,16.31,0,0,0,1.5-6.41c0-2.59.91-3.78,3.24-4.23,2.79-.54,2.69-.66-.72-.82-2.18-.12-4,.36-4,1s-1.5,1-3.32.61-4.74.56-6.84,2.33c-2.94,2.43-3.11,2.93-1,3,2.42,0,3.15,1.54,2.64,5.47C406.41,208.29,413.65,207.45,415.3,204.35Zm40,.57c1.28-3.34.12-3.53-3-.48-2.51,2.42-2.54,2.71-.32,2.71a3.84,3.84,0,0,0,3.33-2.23Zm-434.7-.63c0-2.17-8.48-6-12-5.51-2.72.43-2.34.93,2.63,3.64,6.33,3.44,9.4,4.05,9.4,1.87Zm110.6-.06a1.67,1.67,0,0,0-2.26-.64c-2,1.24-1.62,2.11.91,2.11,1.25,0,1.86-.67,1.36-1.47Zm21.52-2.4a8.39,8.39,0,0,0-4.28-4.6c-1.95-.87-3.49-2.58-3.49-3.79s-.65-2.2-1.45-2.2c-2.08,0-1.83,1.1,1.68,7.33,1.72,3.06,4.16,5.79,5.42,6.08,3,.68,3.05.68,2.13-2.82Zm4,.59c-1.43-1.42-1.6-1.25-.81.81.53,1.42,1.34,2.22,1.79,1.78s0-1.61-1-2.59Zm230.7,1c2.55-2.55,1.88-4-1.28-2.8a3.47,3.47,0,0,0-2.13,2.93c0,2.67.64,2.65,3.42-.13Zm55.3-4.3c0-.8-1-.18-2.12,1.36s-2.12,3.46-2.12,4.26,1,.17,2.12-1.37S442.73,200,442.73,199.16ZM261.19,202.1c.69-1.8.31-2-2-.68-3.36,1.8-3.67,2.88-.85,2.88A3.47,3.47,0,0,0,261.19,202.1Zm269.83.75a1.45,1.45,0,1,0-1.45,1.45h0a1.45,1.45,0,0,0,1.45-1.45v0Zm-552.3-4.47c0-1.54-.57-2.8-1.27-2.8s-1.29,1.63-1.29,3.58.57,3.24,1.26,2.81S-21.28,199.93-21.28,198.38Zm48.44,2.94c.5-.81-.59-1.43-2.45-1.42-2.69,0-2.93.29-1.17,1.42,2.69,1.76,2.5,1.76,3.62,0Zm14,.46a3,3,0,0,0-2.78.11c-.47.48.39.82,1.9.77,1.69,0,2-.39.88-.85Zm64.79-.46c0-.8-1.34-1.44-2.94-1.44s-2.57.64-2.08,1.44c1.12,1.91,5,1.91,5,0Zm62.17,0a1.49,1.49,0,0,0-1.53-1.44h0c-.85,0-1.13.64-.64,1.44,1.14,1.89,2.17,1.89,2.17,0Zm292.72.1a1.58,1.58,0,0,0-.49-2.16c-.73-.45-1.69.16-2.14,1.34-.85,2.39,1.27,3.06,2.63.86Zm-472.73-1.54c-1.15-1.88-3.61-1.88-3.61,0,0,.79,1,1.44,2.25,1.44s1.85-.61,1.36-1.4ZM95.83,197c-2-2.05-3.91-2.76-5.53-2.06-2.15,1-2.11,1.12.37,1.71a12.16,12.16,0,0,1,4.89,2.74c1.15,1.14,2.38,1.78,2.75,1.41s-.75-2-2.48-3.76Zm139.51,2.93c-1.14-1.86-2.17-1.86-2.17,0a1.5,1.5,0,0,0,1.54,1.44C235.56,201.36,235.84,200.71,235.34,199.92Zm22.41-4.48c0-2-.93-2.64-3.34-2.45-2.93.25-3.15.7-1.85,3.44,1.74,3.65,5.2,3,5.2-1Zm-255.9,1c0-1.15-1.47-2.55-3.26-3.12-5-1.61-11.27-1.86-10.38-.42.43.7-.06,1.28-1.1,1.3-1.39,0-1.33.37.23,1.37,1.41.88,2.51.75,3.21-.4s2.08-1.09,5.09.77c5,3,6.22,3.15,6.22.48Zm70.68.09c2.3-2.77-1.62-5.81-6.34-4.89-2.59.49-3.63.06-3.63-1.51,0-1.22-.38-1.83-.85-1.36-1.59,1.59.81,6.15,4.1,7.77,4.52,2.21,4.87,2.21,6.73,0Zm149.64-.19c-1.08-2.82-4.89-2.82-4.89,0,0,1.19,1.28,2.17,2.84,2.17,1.94,0,2.59-.71,2-2.19Zm-177.63-.73a3.21,3.21,0,0,0-2.35-1.44c-.79,0-1,.65-.55,1.44A3.15,3.15,0,0,0,44,197c.76,0,1-.67.53-1.46Zm57.47.49a5.61,5.61,0,0,0-3.62,0c-1,.4-.18.74,1.81.74s2.76-.35,1.78-.76Zm209.3-2.73c0-1.16.65-2.09,1.44-2.09a1.58,1.58,0,0,1,1.45,1.66c0,1,1.25.54,2.93-1,3.63-3.29,3.09-3.87-2.52-2.75-3.16.63-4.63,1.88-5.08,4.31-.37,1.88-.1,3.07.58,2.65a3.68,3.68,0,0,0,1.15-2.86Zm-133,.86c-3.22-1-3-1.17,2.17-1.67s5.87-1,6.21-5c.42-4.24-4.08-12.21-6.89-12.21-1.79,0-11.83,10.39-10.92,11.3.43.43,1.79-.47,3-2,2.15-2.66,2.21-2.6,1.39,1.21-1.13,5.29,1.39,9.78,5.41,9.59,3-.19,2.94-.24-.46-1.3Zm17.35-2.94c-3.62-5.08-3.44-5-6.54-2-2.24,2.25-2.18,2.53,1,4.28a16.17,16.17,0,0,0,6,2c2.4,0,2.36-.31-.5-4.32Zm44.82,3.13c0-2-1.63-2.93-3.75-2.16-1.1.43-1.65,1.36-1.21,2.07,1,1.61,4.91,1.68,4.91.06Zm47.7-1.1c0-1.25-.66-1.86-1.45-1.36-1.87,1.15-1.87,3.61,0,3.61C287.47,195.58,288.16,194.56,288.16,193.3Zm14.45.8a1.45,1.45,0,1,0-1.45,1.45,1.45,1.45,0,0,0,1.45-1.45ZM16.34,190.24c0-1.89-.87-3.37-2-3.37a6,6,0,0,1-3.78-2.17,6.14,6.14,0,0,0-4-2.16c-1.77,0-1.84.4-.37,2.16a5.83,5.83,0,0,0,3.62,2.17c1,0,2.7,1.11,3.79,2.45,1.35,1.66,1.41,2.1.18,1.36s-1.81-.3-1.81.92a2.09,2.09,0,0,0,2.17,2c1.24,0,2.1-1.3,2.1-3.35Zm92.53,2.41a1.49,1.49,0,0,0-1.53-1.44h0c-.84,0-1.13.65-.64,1.44,1.12,1.89,2.14,1.89,2.14,0Zm60.73,0a1.5,1.5,0,0,0-1.54-1.44c-.84,0-1.12.65-.63,1.44,1.11,1.89,2.14,1.89,2.14,0Zm36.19-2.88c0-4.66-2.35-6-3.19-1.81-.42,2.07,1.34,5.86,2.82,6.09a16.54,16.54,0,0,0,.3-4.26Zm26.73,1.8a4,4,0,0,1,.92-2.48c1.09-1.08-1.88-8-3.44-8-.6,0-1.08,1.16-1.08,2.59a7,7,0,0,1-1.68,4.28c-1.27,1.27-1.22,2.23.22,3.91,1.95,2.51,5,2.3,5-.28Zm164.83,1.08c.49-.79-.11-1.44-1.36-1.44s-2.26.65-2.26,1.44c-.06,1.91,2.4,1.91,3.55,0Zm-182.94-5.78c0-2-.16-2-1.4,0a9.68,9.68,0,0,0-1.41,4.34c0,2,.16,2,1.41,0a9.54,9.54,0,0,0,1.33-4.31Zm31.13,2.93a3.15,3.15,0,0,0-2.34-1.44c-.8,0-1,.64-.55,1.44a3.15,3.15,0,0,0,2.33,1.45c.74,0,1-.66.49-1.46Zm13.69-.81c0-.35-.64-.63-1.44-.63a1.48,1.48,0,0,0-1.44,1.53h0c0,.84.65,1.13,1.44.64s1.42-1.15,1.42-1.55Zm172.06.09c0-2.35-2.93-2.72-8.67-1.12l-3.62,1,4.34,1c6.9,1.57,7.92,1.43,7.92-.84Zm-266,.16c0-.32-1-1-2.24-1.43s-1.87-.25-1.36.57c.81,1.36,3.56,2,3.56.85Zm59.27-1.69c0-1.24-.64-1.85-1.44-1.36-1.87,1.15-1.87,3.61,0,3.61.76,0,1.4-1,1.4-2.26Zm163.38.13c0-1.3-.85-1.8-2.17-1.29-2.8,1.08-2.8,3.41,0,3.41a2.14,2.14,0,0,0,2.16-2.13Zm28.28,0c2.36-1.79,2.43-2.13.46-2.17a6.12,6.12,0,0,0-4.16,2.12c-2.34,2.73,0,2.8,3.66,0Zm23.78,1c0-.63-1.31-1.14-2.94-1.14s-2.93.51-2.93,1.14,1.3,1.13,2.93,1.13,2.9-.5,2.9-1.13Zm20.23-.4c0-.84-.64-1.13-1.44-.64-1.86,1.15-1.86,2.17,0,2.17a1.49,1.49,0,0,0,1.4-1.53Zm61.17-4.57c3.42-3.43,1.79-6.18-2.08-3.47a7.84,7.84,0,0,1-5.52,1.33c-3.16-.82-5.54,2.31-2.94,3.91a2,2,0,0,1,.83,2.75c-1.57,2.4,6.48-1.32,9.67-4.52ZM77.8,186.9a3.37,3.37,0,0,0-2.66-1.43c-1,0-.85.58.45,1.42,2.78,1.81,3.27,1.81,2.17,0Zm-9.92-2.17c-2.81-2.82-4.71-2.82-2.37,0,1,1.19,2.41,2.17,3.16,2.17s.41-1-.83-2.17ZM277.4,183c-1.47-1.48-2.68.74-1.47,2.69.91,1.47,1.24,1.47,1.74,0A3,3,0,0,0,277.4,183Zm9.52,2.93a2.93,2.93,0,0,0-2.77.12c-.48.48.38.82,1.89.75,1.72,0,2.12-.39.91-.85Zm52.5-.46c.49-.79-.12-1.44-1.36-1.44s-2.26.65-2.26,1.44c0,1.9,2.5,1.9,3.65,0Zm54.22-.72c0-1.19-.63-2.16-1.4-2.16s-1,1-.57,2.16c1.13,2.8,2,2.8,2,0ZM1.94,183.34c.74.45,1.32-.2,1.32-1.44a2.53,2.53,0,0,0-2.75-2.25c-1.86,0-2.61.83-2.28,2.54.75,3.91.88,4.09,1.66,2.15.43-1,1.36-1.43,2.08-1Zm399.67-3.4c-1.28-1.28-5.08,1.18-5.08,3.28,0,1.9.4,1.86,2.85-.23C401,181.65,402,180.27,401.61,179.94Zm11,2.68c1.88-1.57,2.64-2.87,1.7-2.94-3.08-.09-9.13,2.74-9.13,4.26,0,2.42,3.77,1.74,7.46-1.32Zm-426.7-.08c0-.8-1.13-1.44-2.52-1.43-2.16,0-2.22.22-.36,1.43C-14.21,184.33-14.06,184.33-14.06,182.54Zm7.25-.72c-1.57-1.89-4.35-1.8-4.35.16,0,.4.6.35,1.35-.11a1.67,1.67,0,0,1,2.25.64c.5.81,1.28,1.47,1.72,1.47s0-.94-1-2.13Zm323.85.63c0-.84-.65-1.13-1.44-.64-1.86,1.15-1.86,2.17,0,2.17a1.5,1.5,0,0,0,1.44-1.5Zm108.44-.64c2.29-2.75.14-2.73-3.53,0-2.25,1.71-2.36,2.13-.54,2.13a6.28,6.28,0,0,0,4.07-2.16ZM205,181.12c-1.16-1.87-3.62-1.87-3.62,0,0,.79,1,1.45,2.26,1.45S205.48,181.91,205,181.12Zm31.8-2.49c.59-2.19,1.36-3.16,1.72-2.18.72,2,4.76,2.54,4.76.69,0-2.68-10.24-9-14.6-9-.82,0-.7,1.32.28,3.16,1.43,2.67,1.23,3.54-1.33,5.6-3.18,2.59-2.81,4.59.61,3.28a3.2,3.2,0,0,0,2-2.62c0-1,1.31-2.19,2.94-2.6,3-.78,4,1,1.45,2.58-1.79,1.12-2,5.07-.16,5.07C235.18,182.54,236.24,180.78,236.82,178.63Zm-67.25.52c0-1.09,1.46-2.37,3.25-2.84l3.25-.85L173,172.34c-4.11-4.12-10.61-2.86-10.61,2,0,3.66,2.46,6.77,5.35,6.77a2,2,0,0,0,1.88-2v0Zm79.51-.25c0-.35-.64-.64-1.43-.64a1.5,1.5,0,0,0-1.45,1.54c0,.84.64,1.12,1.45.64s1.43-1.23,1.43-1.58Zm243.16-.27c-3.4-1.39-5.48-1.5-7.54-.4a9.62,9.62,0,0,0-2.84,2c0,.22,3.4.39,7.54.39h7.54Zm10.93,1.46a8.44,8.44,0,0,0-4.35.06c-1,.39.18.7,2.57.67s3.17-.34,1.78-.71Zm-514.29-1.87a1.45,1.45,0,0,0-1.45-1.44A1.45,1.45,0,0,0-14,178.22a1.45,1.45,0,0,0,1.45,1.45,1.45,1.45,0,0,0,1.45-1.45Zm82.41-.8c0-.35-.65-.64-1.44-.64a1.49,1.49,0,0,0-1.45,1.53c0,.84.65,1.13,1.45.64s1.4-1.18,1.4-1.53Zm5.06.8A3.17,3.17,0,0,0,74,176.78c-.8,0-1,.65-.55,1.44a3.15,3.15,0,0,0,2.33,1.45c.77,0,1-.65.52-1.45Zm251-1.08c1.84-2.34,1.77-2.37-.91-.41-1.58,1.17-3.15,2.31-3.49,2.53s.08.41.91.41,2.41-1.13,3.46-2.53Zm186.07-1.56c.46-3.08,3.15-4.52,3.15-1.69a1.39,1.39,0,0,0,1.31,1.44c.72,0,1-1.31.54-2.93-.49-1.9-1.59-2.68-3.11-2.21-1.3.4-7.2,1.74-13.11,2.93s-11,2.5-11.34,2.82c-1.51,1.51,12.9,2.43,14.67,1a4.92,4.92,0,0,1,4.44-.69c2,.76,2.1,1.22.55,2.31s-1.49,1.23.24.77c1.19-.32,2.37-2,2.63-3.73ZM4.06,176.78c-1.16-1.87-3.61-1.87-3.61,0,0,.8,1,1.44,2.25,1.44s1.83-.64,1.32-1.44Zm189.57-13.27c.71-5.87-1.48-7.6-3.12-2.44-.76,2.42-1.25,2.65-2.24,1.09S187,161,187,163.32c0,3.65,2.27,5.68,3.35,2.93.4-1,.78-.35.85,1.44S190.71,171,190,171c-1.6,0-3.08,5.29-1.83,6.53s4.6-7.32,5.4-14ZM344.82,177.2a2.93,2.93,0,0,0-2.77.12c-.48.47.38.82,1.9.75s2-.37.83-.83ZM88.58,174.49c-1.87-2.25-5.71-2.85-5.71-.88s1,2.48,4.37,2.74c2.47.22,2.72-.11,1.29-1.82Zm121.94-.64c-1-3.7-1.87-3.7-1.87,0,0,1.59.59,2.89,1.31,2.89s.93-1.26.51-2.85ZM370.58,172c0-.66.53-.87,1.19-.46s2.19-1.51,3.43-4.26,2-5,1.62-5c-2.13,0-6.18,3.26-5.47,4.4.47.76-.82,2.94-2.85,4.8-4.41,4.08-4.89,6-.81,3.48,1.54-1,2.84-2.3,2.84-3Zm42.92,2.93c1.53-2.38,1.64-8.31.17-8.31-.64,0-1.16,1.32-1.16,2.93a4.19,4.19,0,0,1-2.16,3.77c-1.18.45-1.8,1.4-1.36,2.12,1.09,1.9,3.1,1.67,4.46-.44ZM11.16,173c.65-1.7.28-2.09-1.41-1.44a14.9,14.9,0,0,1-3,.89c-.39,0-.29.64.2,1.44,1.28,2.19,3.14,1.85,4.15-.84Zm209.06-4c0-2.29-5.87-5.75-7.25-4.27-.61.65-.79,3.28-.4,5.87.71,4.52.81,4.57,4.19,2.36,1.86-1.24,3.41-3,3.41-3.91Zm7.23,4.07c0-.35-.66-.63-1.45-.63a1.49,1.49,0,0,0-1.45,1.52c0,.84.66,1.14,1.45.65s1.4-1.14,1.4-1.49Zm19.88-3.17c-1.74-2.93-3.67-5.63-4.29-5.87s-1.14-1.64-1.14-3.07c0-3.26-3.69-6.59-5-4.5-1.1,1.79,1.63,7.34,3.61,7.34a1.5,1.5,0,0,1,1.38,1.58c0,2.19,5.7,10,7.28,10,.68,0-.15-2.43-1.9-5.41Zm-64.55,1.19c-1.59-1-1.59-1.34.05-2.07,1.17-.53.85-.74-.8-.54-3.67.44-4.61,3.55-1.29,4.29s4.46-.12,2-1.64Zm263,1.35c0-1.87-2.46-1.87-3.61,0-.5.79.11,1.44,1.36,1.44s2.2-.6,2.2-1.4ZM-4.8,170.24c-1.21-3.15-4.89-3.91-4.89-1A2.85,2.85,0,0,0-6.88,172c1.79.16,2.52-.46,2-1.73Zm158.94-.74c-.43-1.58-1.34-2.93-2-2.93-1.52,0-1.56.46-.4,3.49,1.22,3.41,3.28,2.9,2.39-.51Zm348,1.45c1.87-1.2,1.83-1.41-.28-1.43a4.25,4.25,0,0,0-3.34,1.43c-1.18,1.88.73,1.88,3.57.05ZM98.73,166.56c-3.43-2.17-5.28-1.5-2.23.81,1.53,1.15,3.14,1.75,3.57,1.32s-.22-1.35-1.39-2.08Zm72-5.52c2.15-4.57,2.19-6,.14-6-.89,0-1.2,1-.7,2.37.77,2,.56,2.08-1.29.54a6.19,6.19,0,0,1-2.2-4c0-1.27-.84-1.82-2.07-1.35a2.13,2.13,0,0,1-2.78-1c-.39-1-.75.25-.82,2.65a7.44,7.44,0,0,0,2.78,6.47c3,2.16,4.13,5.27,1.29,3.52-1.48-.92-4.11,1.61-4.16,4s8.14-3.78,9.76-7.21Zm29.21,5.4c0-.79-.65-1.05-1.45-.55a3.17,3.17,0,0,0-1.44,2.34c0,.79.65,1.05,1.44.55a3.2,3.2,0,0,0,1.4-2.29Zm-216.92.45c0-.67-1-1.2-2.11-1.2s-1.77.53-1.36,1.2C-19.45,168.46-16.94,168.46-16.94,166.89Zm172.86-8.5c-3.91-3.91-6.17-3.72-4.61.33.49,1.28,1.54,2,2.35,1.43s1.45-.18,1.45.71.69,1.2,1.54.67,1.43-.08,1.28,1c-.51,3.68.46,6.29,1.11,2.93.43-2.2-.59-4.51-3.12-7Zm228.56,7.52c1.19-1.19,1.55-2.17.79-2.17s-2.18,1-3.16,2.17C379.77,168.76,381.66,168.76,384.48,165.91Zm-365-2.48c-1-1-1.71-1.13-1.71-.22,0,2,1.71,3.64,2.67,2.67.41-.38,0-1.48-1-2.42Zm215.69,1c-.93-2.4-2.84-2.84-4-.93-1,1.57.49,3.1,2.93,3.1,1.11,0,1.55-.89,1.09-2.14Zm126.7.77c0-.77-1-1-2.17-.57-2.78,1.07-2.78,2,0,2,1.19,0,2.17-.59,2.17-1.36Zm45.77-.83c1.3-3.39-.11-3.79-2.1-.59-1.12,1.78-1.21,2.82-.27,2.82s1.89-1,2.37-2.21Zm114.1-.84c1.28-2.07,3.25-1.44,3.91,1.27.63,2.4.67,2.4.82,0,.1-1.4.82-2.54,1.62-2.54a1.36,1.36,0,0,0,1.44-1.28c0-1.45-6.72-1.16-10.36.44s-4.51,5-1.07,4.12a7,7,0,0,0,3.64-2Zm-505.42.09c0-.84-.65-1.12-1.45-.63-1.85,1.14-1.85,2.17,0,2.17a1.51,1.51,0,0,0,1.45-1.51Zm163.56-2.34c-1.71-2.93-2.13-1.95-.73,1.65.5,1.29,1.21,2,1.58,1.67s0-1.83-.85-3.29Zm-196.81,1a1.44,1.44,0,0,0-1.45-1.44,1.44,1.44,0,0,0-1.45,1.44,1.45,1.45,0,0,0,1.45,1.45,1.45,1.45,0,0,0,1.45-1.42Zm432.29,0c0-.79-1-1.45-2.17-1.45s-2.17.66-2.17,1.45,1,1.45,2.17,1.45,2.18-.63,2.18-1.42Zm8.67-.09c0-.84-.65-1.12-1.44-.63-1.86,1.14-1.86,2.17,0,2.17a1.5,1.5,0,0,0,1.45-1.51Zm71.77-.63a3.48,3.48,0,0,1,2.94-2.17c1.16,0,1.7-.65,1.21-1.44s-.21-1.45.63-1.45a1.45,1.45,0,0,0,1.54-1.31c0-2.25-5.8.08-7.34,2.94-.79,1.48-1,2.71-.31,2.72s.17.66-1,1.43c-1.52,1-1.61,1.41-.32,1.43a3.31,3.31,0,0,0,2.69-2.12Zm43.9-.09c0-.34-1-.63-2.25-.63s-1.85.66-1.35,1.46c.83,1.37,3.61.73,3.61-.8ZM-20.8,160.2c.54-1.4.11-1.83-1.28-1.3-1.15.45-1.73,1.39-1.29,2.1,1.12,1.82,1.65,1.65,2.58-.77Zm248.42-.44c1.83-2.34,1.77-2.37-.9-.41-1.6,1.17-3.16,2.31-3.5,2.53s.08.41.91.41,2.41-1.1,3.46-2.5Zm23.91-2.16c-.4-1-.73-.19-.73,1.8s.33,2.8.73,1.81a5.56,5.56,0,0,0,0-3.58Zm116.15,2c2.69-.16,5.79-2.31,5.79-4A2.45,2.45,0,0,1,376,153.5c1.87-.08,2-.32.49-.92a3.38,3.38,0,0,0-3.61,1.32,17.21,17.21,0,0,1-4.83,3.91c-1.79,1-3.24,2.53-3.23,3.48,0,1.31.31,1.34,1.09.09.55-.93,1.35-1.69,1.74-1.72Zm-225.25-3.38c-1.35-1.35-1.74-1-1.74,1.74s.39,3.08,1.74,1.73S143.74,157.6,142.43,156.25Zm75.94.73c-1-2.18-2.05-2.93-2.93-2-1.88,1.88-.35,5.44,2.34,5.44,1.7,0,1.81-.66.55-3.42Zm164.5,2.45c.49-.8.23-1.44-.56-1.44a3.17,3.17,0,0,0-2.34,1.44c-.49.8-.24,1.44.55,1.44a3.17,3.17,0,0,0,2.31-1.44Zm107.71-.81c0-.35-.66-.63-1.45-.63a1.51,1.51,0,0,0-1.45,1.52c0,.85.66,1.14,1.45.64s1.41-1.17,1.41-1.53Zm-303.95-3.47c-1-1.55-2-2.63-2.22-2.37-.86.85,1.37,5.2,2.68,5.2C187.8,158,187.59,156.72,186.63,155.15Zm303.91-1.65c0-1.9-3.21-1.53-6.14.7-3.83,2.94-3,3.81,1.8,2.12,2.38-.82,4.34-2.1,4.34-2.81Zm-354.87-.2c-1.36-.75-2.89-1-3.4-.44-1.28,1.28,2.84,3.68,4.52,2.65.75-.45.23-1.43-1.12-2.2Zm141.73-.73c-1-1-3.74,1-3.74,2.79,0,1,.82.85,2.2-.3C277.08,154.06,277.78,152.93,277.4,152.57Zm90,1.22c1.1-.69,1.76-1.85,1.45-2.57s-1.67-.15-3.06,1.28c-2.65,2.72-1.75,3.44,1.62,1.29Zm-209-3.06a3.52,3.52,0,0,0-2-4.33c-3.26-1.75-4.89.23-3.57,4.37,1.27,3.73,4.56,3.71,5.54,0Zm67.48,0a1.48,1.48,0,0,0-1.52-1.44c-.85,0-1.14.65-.65,1.44,1.2,1.88,2.22,1.88,2.22,0Zm267.49,0a1.51,1.51,0,0,0-1.54-1.44c-.84,0-1.12.65-.64,1.44,1.2,1.88,2.22,1.88,2.22,0Zm8.71-1.52c2.71-5.06.8-6.11-2.64-1.45-2.49,3.48-2.74,4.46-1,4.46,1.2,0,2.88-1.34,3.76-2.94Zm-328.25,0c0-.84-.64-1.14-1.45-.64-1.84,1.15-1.84,2.16,0,2.16a1.47,1.47,0,0,0,1.5-1.47v0Zm37.6-3.62c0-.35-.66-.64-1.45-.64a1.52,1.52,0,0,0-1.45,1.54c0,.84.66,1.12,1.45.63s1.5-1.16,1.5-1.51Zm66.5-.73c0-.74-1-1.36-2.12-1.36s-1.8-.84-1.29-2.16c.92-2.39.43-2.6-2.93-1.3-2.94,1.13-2.94,3.46-.08,3.46a3.58,3.58,0,0,1,3.05,2.17c.86,2.25,3.42,1.66,3.42-.79Zm69.34.78c.83.51,1.51.21,1.51-.67s2.12-2.58,4.7-3.78c3.59-1.67,3.84-2,1.08-1.39a38.43,38.43,0,0,1-6,.8,8.08,8.08,0,0,0-4.7,2.29c-2.93,2.93-3.06,6-.16,3.56,1.2-.94,2.82-1.3,3.66-.79Zm129.26,0c-1-2.72-1.44-2.72-2.49,0-.5,1.31,0,2.17,1.25,2.17s1.79-.8,1.29-2.11Zm15-1.55c2-2.08,3.11-4.17,2.63-4.64s-2.83,1.21-5.22,3.77-3.58,4.65-2.63,4.65S489.63,146.16,491.59,144.09ZM170.34,145c-1.14-1.85-2.17-1.85-2.17,0a1.5,1.5,0,0,0,1.54,1.45c.79,0,1.08-.66.58-1.45Zm31.35-1.76c-1-1-1.71-1.12-1.71-.21,0,1.95,1.71,3.63,2.68,2.68.41-.42-.08-1.53-1-2.47Zm40.4-.05c1.57-2.93,1.52-3.06-.67-1.26-1.33,1.09-2.4,2.55-2.4,3.25-.05,2.18,1.21,1.38,3-2Zm17.67-.4c-1.14-3-1.95-2.64-1.95.85,0,1.64.62,2.59,1.39,2.12a2.54,2.54,0,0,0,.51-3ZM465.87,142a3.56,3.56,0,0,0-4,.5c-1.71,1.42-1.47,1.84,1.39,2.54,3.78.94,5.57-1.17,2.54-3Zm18.89-2c0-.87-.91-.45-2,1s-2.7,2.52-3.65,2.52-1.31.7-.79,1.55c1,1.75,6.38-2.48,6.38-5ZM376.68,143.1c-.23-.62.58-2.13,1.81-3.35,3.26-3.28,2.73-4.45-2.09-4.59-2.36-.07-4.15.57-4,1.41s-.64,1.82-1.84,2.18c-1.75.52-1.79.38-.2-.72,1.19-.84,1.4-1.72.53-2.27s-2.24.09-3.23,1.27a5.9,5.9,0,0,1-3.78,2.15c-1.09,0-1.95,1.33-1.95,2.94,0,2.67.76,2.93,7.59,2.53,4.09-.21,7.31-.91,7.09-1.54Zm-225.86-1a1.45,1.45,0,1,0-1.45,1.44,1.43,1.43,0,0,0,1.4-1.43Zm327.26-4.52c.89.26,1.09-.05.43-.71a6,6,0,0,0-3.62-1.2,2.4,2.4,0,0,1-2.44-2.31c0-1.25-1.1-3.85-2.4-5.78-2-2.85-2.72-3.16-4.27-1.65s-1.58,2.38,0,4.89c1,1.65,1.24,2.61.46,2.13s-1.11.31-.69,2c.48,1.82,1.52,2.49,3,2s2-.3,1.19.89a5.41,5.41,0,0,0-.14,4.23c.84,2.16,1.32,2,3.91-1.15C475.13,138.64,477.19,137.24,478.08,137.55Zm-334.54,3.14a1.45,1.45,0,1,0-1.45,1.44h0a1.44,1.44,0,0,0,1.44-1.45v0Zm20.24,0c0-.8-1-1.45-2.25-1.45s-1.85.65-1.36,1.45c1.15,1.82,3.61,1.82,3.61-.05ZM184,140a5.52,5.52,0,0,0-3.43-2.12c-.9,0-.36,1,1.18,2.16,3.6,2.68,4.54,2.66,2.25-.08Zm318.09-.64c0-1.54-.65-3.2-1.44-3.69s-1.05.08-.57,1.36.15,2.25-.73,2.25a1.53,1.53,0,0,0-1.6,1.45c0,.79,1,1.44,2.17,1.44s2.17-1.32,2.17-2.86ZM233,139.41c3-2,1.36-6.61-2.53-7.16-2.71-.39-3.25,0-2.51,1.95a15.63,15.63,0,0,1,.93,4.47c0,2.24,1.28,2.48,4.11.69ZM458.89,136c-1.43-1.41-1.59-1.25-.81.81.55,1.42,1.35,2.23,1.8,1.79s0-1.67-1-2.65Zm-262.17-1c-1-1.56-2.05-2.55-2.39-2.2-.61.61,2.54,5,3.6,5,.32-.07-.21-1.34-1.19-2.89Zm21.42.53a14.14,14.14,0,0,1-.88-2.93c0-.38-.65-.29-1.45.21-2.3,1.41-1.67,5,.88,5,1.55-.11,2-.89,1.47-2.39Zm125.68.75c1.49-2.4.16-2.73-1.95-.48-1,1.11-1.23,2-.45,2a3.21,3.21,0,0,0,2.42-1.61Zm-199.57-2.8c-1.15-1.85-2.17-1.85-2.17,0a1.49,1.49,0,0,0,1.53,1.45c.86-.07,1.15-.72.66-1.52Zm213-2.89c1.21-3.43,1.11-4.34-.44-4.34-1.28,0-1.68,1.06-1.16,3.06.7,2.67.44,2.87-2.08,1.51-2.08-1.11-3.35-1.08-4.55.13-2.72,2.73-2,4,2.53,4,3.38-.07,4.52-.93,5.72-4.4Zm-145.15-.09c-1.36-2.2-3.53-1.54-2.63.81.46,1.18,1.43,1.79,2.15,1.34a1.56,1.56,0,0,0,.56-2.13l-.06-.09ZM499.29,132c4.16-2.22,3.43-4.51-.82-2.57-2,.9-3.62,2.19-3.62,2.86,0,1.53,1.07,1.46,4.46-.35ZM265,130.58a1.5,1.5,0,0,0-1.54-1.44c-.84,0-1.12.64-.64,1.44,1.17,1.78,2.2,1.78,2.2-.06Zm81-1.53a1.42,1.42,0,0,0-1.45-1.36c-.79,0-1.45,1-1.45,2.26s.66,1.85,1.45,1.36A3.17,3.17,0,0,0,346,129Zm17.35,2.38a12.22,12.22,0,0,1,.78-2.65c.47-1.23-.12-2-1.45-2a2.48,2.48,0,0,0-2.23,2.65c0,1.46.66,2.65,1.45,2.65s1.47-.35,1.47-.67Zm119.32-3.09a33.15,33.15,0,0,1,1.3-6.07c.59-1.79.64-3.26.14-3.26-1.83,0-5.23,4.35-4.42,5.66a1.28,1.28,0,0,1-.47,1.75,1.23,1.23,0,0,1-.42.14c-1,.34-1.31,1.66-.73,3.14,1.22,3.18,4.28,2.27,4.58-1.43ZM476,121.1c-1.15-1.39-.9-2.94,1-6l2.5-4.08-4.21,4.35c-2.63,2.7-3.53,4.5-2.4,4.8,2.25.57,2.4,4.58.18,4.58-1.08,0-1,.78.29,2.3,1.7,2.07,2,2,3.09-.91A5.72,5.72,0,0,0,476,121Zm-303.58,5.07a8.53,8.53,0,0,0-3.61-1.39c-.79,0-.46.62.73,1.39a8.56,8.56,0,0,0,3.61,1.41C174,127.58,173.65,127,172.45,126.17Zm15.19,0c-1.14-1.84-2.17-1.84-2.17,0a1.49,1.49,0,0,0,1.53,1.45h0C187.85,127.62,188.13,127,187.64,126.17Zm51.84-.72c-.88-2.29-3.41-3-3.41-1a3.4,3.4,0,0,0,3.09,3.13c.64,0,.79-1,.33-2.15Zm33.46.72c.49-.79-.13-1.44-1.37-1.44s-2.25.65-2.25,1.44c0,1.88,2.46,1.88,3.63,0Zm216.14-1.52c0-1.65-.64-2.58-1.44-2.09-1.88,1.16-1.88,5.06,0,5.06.81,0,1.45-1.34,1.45-3Zm16.46.73c.49-1.29.25-1.87-.57-1.36a3,3,0,0,0-1.43,2.24c0,2.08,1,1.63,2-.88Zm-274.89-2.82c-.89-4.64-1.8-4.64-1.8,0,0,2,.55,3.61,1.24,3.61S231,124.55,230.65,122.56Zm172.4,2.15a1.65,1.65,0,0,0-2.25-.64c-2,1.24-1.64,2.1.9,2.1C403,126.17,403.56,125.52,403.05,124.71Zm-198.81-1.78c0-2.64-2.55-6.22-3.63-5.15-.5.51-.18,2.28.7,3.91C203.13,125.13,204.28,125.6,204.24,122.93Zm40.51.36c0-.8-1.13-1.44-2.53-1.43-2.16,0-2.21.23-.36,1.43C244.58,125.05,244.75,125.05,244.75,123.29Zm-225.28-1a2.93,2.93,0,0,0-2.77.11c-.48.48.37.82,1.9.76s2-.42.87-.88Zm492.75-.46c0-1.87-2.45-1.87-3.61,0-.5.79.12,1.45,1.36,1.45s2.25-.67,2.25-1.46Zm-196.58-2.08c0-3.35-2.5-3.91-3.32-.79-.49,1.85,0,2.87,1.28,2.87a2.07,2.07,0,0,0,2-2.09Zm55.37-.89c.64-2.44.41-2.67-1.26-1.28-1.12.93-1.68,2.27-1.24,2.93,1.13,1.94,1.6,1.61,2.47-1.66Zm35.71.8a7.65,7.65,0,0,1,5.23-2.17c2.1,0,3.45-.84,3.45-2.16,0-2.53-2.28-2.94-3.7-.6-.53.86-2.2,1.24-3.7.85-1.72-.45-2.73,0-2.73,1.32,0,1.13-.65,2-1.44,2a1.46,1.46,0,0,0-1.45,1.44c0,2.13,2.24,1.75,4.3-.73ZM507.54,119c3.08-1.88,4.38-3.59,3.82-5-1.09-2.85-4.89-2.88-4.89,0,0,1.19-1.3,3.47-2.93,5-3.66,3.63-2,3.64,4,0Zm-5.5-4.06c-.14-3.46-1.79-6.77-3.51-7.05-.79-.11-2.62,1.36-4.07,3.29-1.71,2.3-1.95,3.37-.75,3.12,1-.21,2.08,1.07,2.36,2.86.41,2.73,1,3,3.28,1.76a5,5,0,0,0,2.65-4Zm22.5,4c.49-.8-.12-1.45-1.36-1.45s-2.25.64-2.25,1.46c0,1.84,2.43,1.84,3.59,0ZM43.8,116.71c0-.36-1-.65-2.26-.65s-1.83.67-1.34,1.48c.81,1.32,3.58.68,3.58-.84Zm174.46.17a2,2,0,0,1,.82-2.64l.1,0c1-.34,1.4-1,1-1.43s-2,.15-3.61,1.32c-2.47,1.8-2.57,2.29-.72,3.47,2.95,1.85,3.33,1.74,2.41-.68Zm50.33-.85c-1.14-1.85-2.17-1.85-2.17,0a1.51,1.51,0,0,0,1.54,1.45C268.81,117.5,269.09,116.85,268.59,116Zm220.25-1.2c1.33,1,2,1.3,1.42.64s-.45-2.59.2-4.31c.88-2.34.33-4.21-2.17-7.35l-3.35-4.21-1,4.25c-.53,2.32-1.27,5.4-1.67,6.84a6.21,6.21,0,0,0,1.22,4.89c1.77,2.12,1.95,2.11,2.41-.15.4-2.07.87-2.17,2.94-.63Zm-307-3.13c-1.43-1.6-3.27-2.94-4.09-2.94-1.77,0,3.53,5.58,5.4,5.71.74.1.15-1.16-1.3-2.75Zm-80.2,0a1.45,1.45,0,1,0-1.44,1.45h0a1.45,1.45,0,0,0,1.41-1.43ZM398.76,110c.79-.29,1.29-1,1.1-1.56s1.51-.66,3.8-.21,4.49.28,4.89-.41c1.69-2.72-8.67-1-12.71,2.11-2.37,1.84-3,2.72-1.42,2s3.51-1.59,4.31-1.86Zm-113.45-1.31c0-.85-.65-1.14-1.45-.65-1.85,1.15-1.85,2.17,0,2.17a1.49,1.49,0,0,0,1.36-1.5Zm-39-2.81c-.86-1.6-2.19-2.94-2.94-2.94-2,0-1.74.89.88,3.52,3,3.15,3.84,2.91,2-.56ZM82.33,103.41c-1.48-1.46-2.69.75-1.48,2.7.91,1.47,1.25,1.47,1.74,0a2.94,2.94,0,0,0-.34-2.68Zm-8.11,1.3c0-.66-1-1.21-2.1-1.21s-1.77.55-1.36,1.21c.88,1.54,3.38,1.54,3.38,0Zm326-4.33c-.86-.86-5.06,2.68-5.06,4.28,0,.68,1.28.15,2.85-1.2S400.52,100.74,400.17,100.38ZM498.64,102c-.48-.48-.82.37-.76,1.89.07,1.69.42,2,.88.88A2.93,2.93,0,0,0,498.64,102ZM230.79,99.4c-.48-1.22-1.17-2-1.54-1.54a2.11,2.11,0,0,0,.26,2.24C230.93,102.34,231.77,101.92,230.79,99.4Zm160-.83c0-.79-.65-1-1.45-.54a3.17,3.17,0,0,0-1.44,2.33c0,.8.65,1,1.44.55a3.18,3.18,0,0,0,1.45-2.38Zm-341.6-.83c-1.34-1.34-2.93-1.95-3.52-1.36s-.12,1.69,1.06,2.42c3.51,2.19,5.07,1.52,2.46-1.1Zm42.31-1.95c0-.84-.64-1.13-1.45-.64-1.84,1.14-1.84,2.17,0,2.17a1.48,1.48,0,0,0,1.45-1.54v0Zm155.43.08c-1.14-1.85-2.17-1.85-2.17,0a1.5,1.5,0,0,0,1.53,1.45c.85-.06,1.13-.71.64-1.5ZM289,92c-.48-.48-.82.38-.77,1.9.08,1.69.42,2,.88.88a2.93,2.93,0,0,0-.09-2.88ZM48.1,91.57a1.49,1.49,0,0,0-1.53-1.44c-.85,0-1.13.65-.64,1.44,1.16,1.76,2.19,1.76,2.19-.1ZM197.74,72.78c-1.15-1.86-2.17-1.86-2.17,0a1.49,1.49,0,0,0,1.53,1.44c.86-.1,1.15-.74.66-1.53ZM276,63c-.48-.48-.82.37-.76,1.9s.41,2,.87.87A2.94,2.94,0,0,0,276,63ZM145.5,57.55c-1.07-2.78-2-2.78-2,0,0,1.19.63,2.17,1.4,2.17s1-1,.57-2.22Zm12.71-1c-1-1-1.71-1.12-1.71-.22,0,2,1.71,3.64,2.68,2.68.46-.46,0-1.56-.92-2.51ZM135.09,54.4a2.9,2.9,0,0,0-2.77.1c-.48.48.37.82,1.89.77,1.74-.12,2.09-.46.93-.92Zm20-.55c0-.84-.65-1.13-1.44-.64-1.86,1.15-1.86,2.17,0,2.17a1.49,1.49,0,0,0,1.52-1.48v-.1Zm-14.41-1.39a1.45,1.45,0,1,0-1.45,1.45,1.45,1.45,0,0,0,1.45-1.45Zm-4.33-3.62c0-1.2-1.3-2.16-2.94-2.16-2.87,0-3.75,1.53-1.95,3.37s4.89,1,4.89-1.23ZM143,47.37c-.49-1.28-1.58-1.89-2.42-1.38-1.05.65-1,1.59.2,3,2.1,2.47,3.44,1.49,2.22-1.66Zm217.4,1.39c0-.35-.64-.63-1.45-.63a1.48,1.48,0,0,0-1.43,1.52c0,.84.64,1.14,1.43.64s1.45-1.2,1.45-1.55Zm-201-1.53c0-1.75.88-2.12,3.53-1.45,5.41,1.36,5.71-1.42.55-5.09-4-2.87-4.49-2.93-3.6-.62.71,1.83.11,3.29-1.9,4.7-3.44,2.42-3.82,4.77-.76,4.77A2.26,2.26,0,0,0,159.45,47.23ZM181,47.7c-.33-.23-1.91-1.37-3.49-2.54-2.68-1.95-2.75-1.95-.91.41,1.1,1.39,2.66,2.54,3.49,2.54s1.24-.19.91-.41Zm7.77-3.92c-1-4-1.86-3.61-1.86.82,0,2,.59,3.33,1.31,2.88s1-2.13.55-3.72Zm-58.25.88c0-.31-1-1-2.24-1.42s-1.87-.26-1.36.56c.83,1.35,3.6,2,3.6.84Zm70.58-6.31a5.93,5.93,0,0,1-.71-4.7c.41-1.59,0-3.32-.92-3.85s-1.22-.45-.66.17.08,2.07-1.08,3.22c-2.4,2.41-2.8,6.24-.65,6.24.79,0,1.44,1,1.44,2.22,0,1.83.36,1.9,2,.36C201.92,40.72,202.09,39.61,201.11,38.35Zm13.33,4a1.45,1.45,0,1,0-2.89,0,1.42,1.42,0,1,0,2.84,0Zm-39.07-3.65c-1-1.21-2.2-1.83-2.66-1.37s.12,1.45,1.29,2.18c3,1.94,3.4,1.7,1.32-.81Zm58-4.56c-1.27-2.16-1.54-2.23-1.58-.34-.05,2.42,1.48,4.63,2.49,3.6C234.62,37,234.21,35.57,233.39,34.11Zm-71-.47c-1.54-1-1.62-1.41-.31-1.42s.81-1.16-1.09-3.19c-2.26-2.43-3.35-2.78-4.65-1.48-2.06,2.05,2.26,7.55,5.91,7.52,2,0,2-.22.11-1.43Zm23-7.59c.26-3.13-.2-3.69-3.53-4.33-3.68-.7-4.47.77-2.77,5.21C179.93,29.11,185.2,28.38,185.38,26.05Zm8.13,1c-3.61-2.72-5.28-2.7-4.22.05.46,1.19,2.23,2.15,3.91,2.12C196.22,29.21,196.22,29.17,193.51,27.09Zm-18.81-3c-.6-2.43-.41-3.42.57-2.81.83.51,1.51.19,1.51-.7s-1.22-1.26-3.26-.63c-4.63,1.43-4.74,1.74-1.81,5C175.2,28.8,175.86,28.61,174.7,24.1ZM343,24.86c0-.85-.64-1.14-1.45-.65-1.84,1.15-1.84,2.17,0,2.17a1.48,1.48,0,0,0,1.47-1.49Zm-23.85-1.37c-1.15-1.85-2.17-1.85-2.17,0a1.49,1.49,0,0,0,1.53,1.45c.9,0,1.15-.62.66-1.42ZM186.9,19.07c0-.84-.66-1.13-1.45-.64-1.85,1.15-1.85,2.17,0,2.17a1.5,1.5,0,0,0,1.47-1.5Z" transform="translate(77.66 -3.68)"/>
  </g>
  <circle class="cls-4" cx="328.2" cy="247.33" r="241.07"/>
</svg>
